https://www.youtube.com/watch?v=46RJxJ-Fm0Y
https://dastinia.io/write-up/hackthebox/2018/06/27/hackthebox-fulcrum-writeup/
https://www.hackingarticles.in/hack-the-box-fulcrum-walkthrough/
https://forum.hackthebox.eu/discussion/819/fulcrum-write-up-by-alamot
https://sabebarker.com/writeups/hackthebox/getting-started/basic-setup/
https://snowscan.io/htb-writeup-writeup/
