https://raw.githubusercontent.com/laituan245/spoj-solution/master/tutorial/HELLOKIT.cpp
https://raw.githubusercontent.com/lewin/SPOJ/master/hellokit.java
https://raw.githubusercontent.com/sagarkar10/SPOJ/master/HELLOKIT%20-%20Hello%20Kitty.py
