https://raw.githubusercontent.com/appsecco/dvna/master/docs/solution/a5-broken-access-control.md
https://code610.blogspot.com/2019/10/testing-dvna.html
https://appsecco.com/books/owasp-2017-dvna-attacks/broken-authentication.html
https://appsecco.com/books/owasp-2017-dvna-attacks/missing-function-level.html
https://www.cnblogs.com/hack404/p/10386938.html
https://zhuanlan.zhihu.com/p/105003724
https://blog.csdn.net/weixin_30781775/article/details/97314487
https://www.bbsmax.com/A/GBJrN6nBJ0/
