https://raw.githubusercontent.com/BlakeBrown/HackerRank-Solutions/master/Algorithms/Strings/Bigger%20is%20Greater.cpp
https://raw.githubusercontent.com/mikkysati/Hackerrank-Solution-in-C/master/Bigger-is-Greater/Solution.cs
https://raw.githubusercontent.com/leeychee/hackerrank/master/practice/algorithms/implementation/bigger_is_greater/main.go
https://raw.githubusercontent.com/aayushuppal/Bigger-is-Greater/master/hkrlexo.java
https://raw.githubusercontent.com/gabrielgiordan/hackerrank/master/algorithms/implementation/bigger-is-greater.js
https://raw.githubusercontent.com/lamphanviet/hackerrank-python/master/bigger-is-greater.py
