http://guidedtourofmythoughts.blogspot.com/2016/08/
https://github.com/sfpskywood/babyctf/blob/master/doc/1.3_network.md
https://ddanss.tistory.com/151
https://www.securecorp.co.kr/15
https://tgraph.io/CTF-Network-Zadaniya-s-Root-Me-chast-1-09-15
https://www.jianshu.com/p/edb2080554c9
https://secure-key.tistory.com/29
https://mandu-mandu.tistory.com/236?category=733903
