https://resources.infosecinstitute.com/the-bodgeit-store-part-1-2/
https://passionforpentesting.com/2018/01/19/the-bodgeit-store-series-7-change-your-passwords-via-a-get-request-bodgeit-infosec-pentest-appsec-webapp/
http://itsorcerer.blogspot.com/2011/11/bodgeit-notes.html
