https://www.youtube.com/watch?v=box_CHwM9cY
https://www.youtube.com/watch?v=Q_sHf6ntzlE
https://www.youtube.com/watch?v=OuVjNJ9nKyM
https://alexandervoidstar.wordpress.com/2015/06/28/hackthis-main-level-4/
http://liberte-informatique.blogspot.com.co/2013/03/hackthis-main-level-4.html
https://www.youtube.com/watch?v=83V1gan4L_M
https://www.youtube.com/watch?v=Kqnaf4cOw0A
