https://github.com/skiptomyliu/solutions-bwapp#shellshock-vulnerability-cgi
https://www.youtube.com/watch?v=kkIc5Xt76rc
https://www.youtube.com/watch?v=W7GaVyzkCs0
https://www.youtube.com/watch?v=MyldPMn95kk
https://www.youtube.com/watch?v=pEpOSCgTabs
https://www.youtube.com/watch?v=0FmEUpDDpcg
https://www.youtube.com/watch?v=aKShnpOXqn0
https://www.youtube.com/watch?v=U0HtR92phQY
https://www.youtube.com/watch?v=xxDPEalJNU8
https://www.youtube.com/watch?v=aHC9iNwq5h4
https://www.youtube.com/watch?v=BdeoWf6HFPM
https://www.netsparker.com/blog/web-security/cve-2014-6271-shellshock-bash-vulnerability-scan/
https://www.youtube.com/watch?v=UllSNdgGLbo
https://www.yeahhub.com/shellshock-beef-framework-exploitation-tutorial/
https://blog.knapsy.com/blog/2014/10/07/basic-shellshock-exploitation/
https://samiux.blogspot.com/2014/09/exploit-shellshock-proof-of-concept.html
http://niiconsulting.com/checkmate/2014/10/shellshock-exploitation-using-beef-framework/
https://dunnesec.com/category/attacks-defence/shellshock-bwapp-attacks-defence/
https://www.youtube.com/watch?v=aa-O5EyCcKc
https://www.youtube.com/watch?v=u1H12rMdLTg
https://www.youtube.com/watch?v=ybgxWlujUKM
https://www.youtube.com/watch?v=RTx_1XDJScA
https://net123.tistory.com/551?category=695510
