https://raw.githubusercontent.com/pascal-bourut/codeeval-challenges/master/moderate/146%20-%20Bats%20Challenge/146.js
https://raw.githubusercontent.com/pascal-bourut/codeeval-challenges/master/moderate/146%20-%20Bats%20Challenge/146.php
https://raw.githubusercontent.com/mpillar/codeeval/master/1-moderate/bats-challenge/main.py
