14
110100000
00110001010010
1011101011
10111110110111110110011100
1010110000111111001
101111100100101010
0100110111011001000
10010011001001000
100001010111
111000111110111000
0101111011011010100
0000111101
10111010
0010
14
0001010000001010000
111010100110011110111110100011
1100001011010000010001101110
11011010011001101110010101011
110011101001010000011000
100101011101111110101001100010
011100101001011111101
10100011010001111101011
0110110011000001111110000
1100010100001111010101011111100
100001101001011110100100
11001101010101010101010
0011111100100
1001111101010101111110101
