https://raw.githubusercontent.com/Waqar-107/Codeforces/master/C-set/437C.The%20child%20and%20Toy.cpp
https://raw.githubusercontent.com/o-panda-o/MySolutions/master/Greedy/Code_437C_TheChildAndToy.java
https://raw.githubusercontent.com/changyuheng/codeforces-solutions/master/437c.py
