26
fermenting armfuls tuckers undertone newsreel
MJ2XI5DPMNVXGIDDN5WW2ZLSMNUWC3DJPJQXI2LPNYQG233TMFUWGMRS
reconstitute malignancy gyms researching ingress
MV3G623FGU2TKNJV
irradiates disembodying affection barking
NBUXG5DPOJUWK4ZANRUW24DJMRUXI6JAON3WC4DQMVSCAZDFMJQWG3DFGU2TKNJV
scoundrels repositories
MJXW623TORXXEZJR
callousing ancestored forewarns pointed
NRXXEZBR
wallows defaulters
M5QW2YTMNFXGOIDWMFUW4IDDN5XHI4TBMN2GS3DFEBTXE33HM5UWK43UGU2TKNJV
slyest strove
ONYGKYLLOMQHI4TJOBWGSY3BORUW4ZZAMNWG6YLLNFXGOMRS
hourglasses alongside
OBXXA5LMMF2GS33OEBZWQ4TJMVVWS3THEBRW63TUOJQWY5DPGU2TKNJV
tender valiantly wannabes trickled escalations
MJQWG23QMVSGC3DMNFXGOIDTNVSWC4RAONYHK4TSMVSCAYLNOB2XIYLUNFXGOMRS
mutely
O5UW4ZDZEBZG643FMJ2XG2BR
dingoes motioned penance rotten
NVUW45LFOQQHI33PNRRGC4TTGU2TKNJV
vocal ulcering bewail patient
MRXWIZ3JNZTSA2TPOVZXIIDPOZSXE4LVMFWGSZTJMVSCAZDBOJ2GE33BOJSDGMZT
manipulative luckless beatnik
MZSXE4TVNRSXGIDUN5XXI2DTN5WWKIDPOZSXE43UMVYHGMRS
