https://gist.githubusercontent.com/yagihiro/297145/raw/500b3b9700a17fb4ea712fb951e3ca557f69bd37/suffix%2520array%2520sample%2520by%2520c.c
https://raw.githubusercontent.com/marioyc/Online-Judge-Solutions/master/SPOJ/Partial/6409%20-%20Suffix%20Array.cpp
https://raw.githubusercontent.com/cweill/SuffixArray-Golang/master/suffixarrayx.go
https://gist.githubusercontent.com/ashumeow/9e449a4a4076e896eacd/raw/6fce4bd58701bda3b8f7edab7e2edb7a6e09d449/suffix-array.js
https://gist.githubusercontent.com/prasoon2211/cc3f3d5b43a0885c0e7a/raw/83da1d3f2b296a412de86ce31082e7ca8312cf7e/suffix_array.py
https://gist.githubusercontent.com/bluetwin/5268722/raw/0d5459894729a2937df41ab22a495bdbb29fde40/SuffixArray.rb
