https://raw.githubusercontent.com/c650/hackerrank-solutions/master/Algorithms/Implementation/designer-pdf-viewer.cpp
https://raw.githubusercontent.com/RyanFehr/HackerRank/master/Algorithms/Implementation/Designer%20PDF%20Viewer/Solution.cs
https://raw.githubusercontent.com/irlndts/go-hackerrank/master/algorithms/implementation/designer-pdf-viewer.go
https://raw.githubusercontent.com/rshaghoulian/HackerRank_solutions/master/General%20Programming/Basic%20Programming/Designer%20PDF%20Viewer/Solution.java
https://raw.githubusercontent.com/RyanFehr/HackerRank/master/Algorithms/Implementation/Designer%20PDF%20Viewer/Solution.js
https://raw.githubusercontent.com/danhenriquesc/hackerrank/master/algorithms/implementation/designer_pdf_viewer.php
https://raw.githubusercontent.com/cielavenir/procon/master/hackerrank/designer-pdf-viewer.rb
https://raw.githubusercontent.com/witekbobrowski/HackerRank/master/Algorithms/Implementation/designer-pdf-viewer.swift
