https://www.betterhacker.com/2011/09/command-execution-on-dvwa.html
https://www.hackingarticles.in/command-injection-exploitation-dvwa-using-metasploit-bypass-security/
https://www.youtube.com/watch?v=5Tt3aSeusXU
https://www.youtube.com/watch?v=Jk3IArdODGs
https://www.hempstutorials.co.uk/command-injection/
https://www.homelab.it/index.php/2016/01/07/dvwa-command-injection-soluzione-completa/
https://www.youtube.com/watch?v=0ln7nsCQlaI
https://www.youtube.com/watch?v=AoMtDmYVGmQ
https://www.youtube.com/watch?v=iu3nbkATU9k
https://www.computersecuritystudent.com/SECURITY_TOOLS/DVWA/DVWAv107/lesson2/index.html
