https://raw.githubusercontent.com/jasonhartley/coding-challenges/master/CodeEval/SumOfPrimes/src/Main.java
https://raw.githubusercontent.com/AnEmortalKid/codeeval-lua/master/src/main/lua/com/anemortalkid/codeeval/lua/easy/sumofprimes/sum_of_primes.lua
https://raw.githubusercontent.com/blamonet/php-code-eval-solutions/master/sum_of_primes.php
