Stand at the pole with the plaque START
go 300 feet by azimuth 1
go 60 feet by azimuth 295
go 260 feet by azimuth 350
go 60 feet by azimuth 3
go 80 feet by azimuth 40
go 380 feet by azimuth 285
go 20 feet by azimuth 41
go 400 feet by azimuth 16
go 100 feet by azimuth 294
go 500 feet by azimuth 323
go 400 feet by azimuth 275
go 320 feet by azimuth 87
go 460 feet by azimuth 80
go 460 feet by azimuth 14
Dig here!
