https://www.youtube.com/watch?v=uNF7sGoM5cA
https://www.youtube.com/watch?v=SSqiTBNKT9A
https://www.youtube.com/watch?v=WRAEsEMgAd8
https://www.youtube.com/watch?v=g2r4t-dsZJU
https://www.youtube.com/watch?v=OMtvF-FTxGQ
https://www.youtube.com/watch?v=T7a0tVTtY7Q
https://www.youtube.com/watch?v=SgJm0C6jzbo
https://hsploit.com/heartbleed-exploitation-tutorial/
https://ejtaal.net/infosec/beebox.html
https://net123.tistory.com/547?category=695510
