https://raw.githubusercontent.com/SedaKunda/CodeEval/master/Easy-Level/FindAWriter.java
https://raw.githubusercontent.com/pascal-bourut/codeeval-challenges/master/easy/97%20-%20Find%20a%20writer/97.php
https://raw.githubusercontent.com/leaen/Codeeval-solutions/master/find-a-writer.py
