20
{d[ [g]]}[[e]e<%>]{d}(d)<[^ <x>>[w{f}]{w}
{{c}(d)( )[w](v)<{x}*{v[h]}> [x]t>(c<e>)}[h](e)[<]{g}[ ]
[+](g)<[{[b<%>]-}x] >(+( ))<*{{(a)d}b(w)}>{}<f>
(v</>)()[<*>z]{{(t)u}<(%)w>e< >}(a<v(w)>)
[<v(w)><][<[d]t>(-)(u)y[f](f)(v)</>-t><->][x]{}
<%>[y]{w}<>[(({ }y)g<<[y](g)c>u><u>)-< >]
(<%{c}>)[( )[c]<<a>{%}->[z]<c>(a)<y>a][(e){z}x]<e>([-]*)<b>
[g][%][(c){[g(t)<u>]<*>z<v>}][[w]v[<e>-]]
[e]<x<x>><{t}[-]t(t)>(d){v}<+[w]>(f)[{f} ]<>[z]
{}[u]( ){(w) (<f>+)}{<h>*[z]}<x>{e}[ ][c[-]]{*<<y>v>}
[[t]a]< (g){[e](*)x}{%}[*]>{ }({x}){d}<-><[x]<h[[-]/][c]>z>
<{x(v)(u)}{t}y[c(^)]</>{<y{-}>g>[%][x{d}]><[%][[c]g]}
(w)[(][t]({v}<{w}(/)(w)^(c)><v>(b)z<u> <f>)(c))
(x{w}{w}{<h>*}{(u)(z)b( )[ ]}<){^}v((+)/>)()
<*><[+<g><w>{{z}(f)^}{[z] /)/}]y>[^[z]](([h]f[d]{a})<(z)d(v)><c>)
{g}[{y} ][%](^{w}){e[t][e](t)([%]z)}<( )h>[a]{(w)e}()
[{z}v]((a)w<t>)((g(( )c{f}))b-)<[^]e>/(<d>([{t}b]))(<(<+> )v>)
</< >[t][/]>[c][ [ ]](g){{a}{{v}c}}<u>{t</[d]>}{u(^)}[[u]u]
<z[f{ }][c]{c}>{y({/} )<(a)f>(^)}<((<+>{z}^([f]/))v[ ])>(^)
{((v)(y)c)(a)t} <f><y><*><+>b){<[v]{t<d(<g>b)>}y>(x(z))[w]}<< >f>
