https://www.youtube.com/watch?v=RybqoFIXmLE
https://5t0rm5had0w.wordpress.com/categories/walkthroughs/owasp-security-shepherd-walkthrough
https://sythonic.github.io/2016/OWASP-Security-Shepherd/
http://purpleskypeter.blogspot.com/2018/04/owasp-securityshepherd-directobjbank.html
http://purpleskypeter.blogspot.com/2018/04/owasp-securityshepherd-directobj1.html
http://purpleskypeter.blogspot.com/2018/04/owasp-securityshepherd-directobj2.html
