https://skysec.top/2017/07/18/SQLi-LABS(Basic)(Less-1%20~%20Less-22)/#Less-10
https://www.youtube.com/watch?v=gzU1YBu_838
https://resources.infosecinstitute.com/tutorial-on-sqli-labs/
https://raw.githubusercontent.com/WangYihang/sqli-labs/master/writeup/Lesson-10.md
https://flora.gitbooks.io/web-application-security/sqli-labs_less-9.html
https://github.com/gr4vit0n/sqli-labs-solution/blob/master/less10.py
https://www.youtube.com/watch?v=ADW844OA6io
