https://raw.githubusercontent.com/MaskRay/HackerRank/master/reverse-shuffle-merge.cc
https://raw.githubusercontent.com/HamidTheGeek/HackerRankSolutions/master/Solutions/ReverseShuffleMerge.cs
https://raw.githubusercontent.com/charles-wangkai/hackerrank/master/reverse-shuffle-merge/Solution.java
