https://hackmethod.com/overthewire-bandit-25/
https://kongwenbin.wordpress.com/2016/09/11/overthewire-bandit-level-25-to-level-26/
https://jdow.io/blog/2017/12/16/overthewire-bandit-wargame-walkthrough/#level-25---26
https://jhalon.github.io/over-the-wire-bandit2/
https://blogcompsci.wordpress.com/2014/11/25/bandit-level-24-%E2%86%92-level-25/
https://medium.com/@Kan1shka9/overthewire-wargames-bandit-walkthrough-df2b86826c67
https://www.youtube.com/watch?v=fTOedf5Y91Ihttps://jdow.io/blog/2017/12/16/overthewire-bandit-wargame-walkthrough/#level-25---26
https://raw.githubusercontent.com/Lorenyx/mySolutions/master/overthewire/Bandit/Level_25.md
