https://raw.githubusercontent.com/BlakeBrown/HackerRank-Solutions/master/Algorithms/Bit%20Manipulation/Lonely%20Integer.cpp
https://raw.githubusercontent.com/charles-wangkai/hackerrank/master/lisa-workbook/Solution.java
https://raw.githubusercontent.com/danhenriquesc/hackerrank/master/algorithms/bit_manipulation/lonely_integer.php
https://raw.githubusercontent.com/raghav97/Hackerrank-Solutions/master/lonely_integer.rb
