https://www.youtube.com/watch?v=hU23IcDfQzA
http://www.h3399.cn/201707/111479.html
https://teckk2.github.io/web-pentesting/2018/02/07/SQL-Injection(CAPTCHA).html
https://ctf-time.com/bwapp-walkthrough-sql-injection-cross-site-scripting/
https://www.youtube.com/watch?v=qcNUqk1es3o
https://youtu.be/KvQSrGMITm8
https://www.youtube.com/watch?v=qcNUqk1es3o&t=4s
https://www.youtube.com/watch?v=ZrJJb-R6Czc&t=5s
https://www.youtube.com/watch?v=2K1fGBfHrw0
https://www.youtube.com/watch?v=hHSa44bg-sU&t=4s
https://www.youtube.com/watch?v=SJgYdTckMBY
https://www.youtube.com/watch?v=S0Np3zGBVUQ
https://www.youtube.com/watch?v=lJRtcL42vdA
https://www.youtube.com/watch?v=oQOpyA72OT0
https://es.slideshare.net/AliTamoor1/7-dvwainsecure-captcha
https://medium.com/bugbountywriteup/bypassing-captcha-like-a-boss-d0edcc3a1c1
https://studysecurity-world.tistory.com/70?category=806005
https://net123.tistory.com/456?category=695510
