https://raw.githubusercontent.com/spokenlore/CodeAbbey/master/Beginner/14.%20sumDigits/sumDigits.cpp
https://raw.githubusercontent.com/Tempurturtul/CodeAbbey/master/C%23/SumOfDigits.cs
https://raw.githubusercontent.com/skilled19/sols/master/harv/codeabbey-11-sum-of-digits.d
https://raw.githubusercontent.com/SebastianHerrera/DartProblems/master/sum_of_digits.dart
https://raw.githubusercontent.com/skilled19/sols/master/JCDenton-11-sum-of-digits.fs
https://raw.githubusercontent.com/skilled19/sols/master/harv/codeabbey-11-sum-of-digits.hs
https://raw.githubusercontent.com/meganroche/CodeAbbeySolutions/master/Java/SumDigits.java
https://raw.githubusercontent.com/skilled19/sols/master/harv/codeabbey-11-sum-of-digits.jl
https://raw.githubusercontent.com/DylanLenz/codeAbbey_Solutions_JavaScript/master/sumOfDigits_codeAbbey_11.js
https://raw.githubusercontent.com/chriswood/codeabbey/master/ca15.lisp
https://raw.githubusercontent.com/mpeshehonov/Codeabbey/master/practice/%2311/index.php
https://raw.githubusercontent.com/skilled19/sols/master/harv/codeabbey-11-sum-of-digits.pl
https://raw.githubusercontent.com/vinitkantrod/codeabbey-Solutions-in-Python/master/11_body_mass_index.py
https://raw.githubusercontent.com/marclerodrigues/ruby_exercises/master/sum_of_digits.rb
https://raw.githubusercontent.com/YetAnotherMinion/YAMScratch/master/CodeAbbey/rust-sol/src/11.rs
https://raw.githubusercontent.com/mmcdon20/code_abbey/master/src/main/scala/Abbey011.scala
https://raw.githubusercontent.com/skilled19/sols/master/harv/codeabbey-11-sum-of-digits.vb
