https://chousensha.github.io/blog/2014/07/03/smashthestack-io-level-1/
https://multiplex3r.github.io/posts/2016-07-31-smash-the-stack-level01/
http://raidersec.blogspot.com/2012/10/smash-stack-io-level-1-writeup.html
https://raw.githubusercontent.com/linuxp3nguin/smashing-the-stack-2013/master/IO/001
https://www.greyhat.dk/io-smashthestack-level-01/
https://blog.techorganic.com/2015/04/10/64-bit-linux-stack-smashing-tutorial-part-1/
https://www.youtube.com/watch?v=ILccVhGwH4w
https://infamoussyn.wordpress.com/2013/09/05/smashthestack-io-walkthrough-part-a-level-1-5/
http://peterdreyersblog.blogspot.com/2012/11/iosmashthestackorg-level-01-tutorial.html
https://www.youtube.com/watch?v=T_hQJFUrclQ
