18
4 15 1 14 18 13
5 9 11 0 0 13
1 10 0 16 8 3
15 15 8 14 17 18
13 19 18 19 6 17
11 5 10 12 1 15
5 4 20 17 20 10
0 6 17 0 5 7
19 17 8 7 1 14
3 4 13 1 11 15
17 14 0 6 2 15
17 11 3 16 5 20
2 8 14 20 7 8
13 7 13 1 8 16
16 18 8 8 14 4
2 15 3 3 19 10
2 17 0 5 0 9
14 15 16 8 13 8
