https://medium.com/@D00MFist/vulnhub-bsides-vancouver-2018-workshop-76b5db318eff
https://www.youtube.com/watch?v=SerBliNAh1k
https://www.youtube.com/watch?v=1nL19pnTVZM
https://www.youtube.com/watch?v=G34AG6E_waA
https://www.youtube.com/watch?v=8rB00zwrgqk
https://www.youtube.com/watch?v=anWxGxxGz8s
https://www.youtube.com/watch?v=PXuL2r62m40
https://resources.infosecinstitute.com/bsides-vancouver-2018-walkthrough/#gref
https://www.adamluvshis.com/content/bsides-vancouver-2018-workshop-walkthrough
http://www.hackingarticles.in/hack-the-bsides-vancouver2018-vm-boot2root-challenge/
