https://github.com/skiptomyliu/solutions-bwapp#xss---reflected-eval
https://www.youtube.com/watch?v=QwmxZLhYGsM
http://security-is-just-an-illusion.blogspot.com/2014/01/bwapp-cross-site-scripting-xss.html
http://www.sec-art.net/2018/06/bwapp-buggy-web-application-xss.html
https://cloud.tencent.com/developer/article/1078917
https://youtu.be/Ak8YXeqS2fw
https://www.youtube.com/watch?v=lHFuv1-1nEQ
