https://raw.githubusercontent.com/pastelito02/Challenges-sol/master/Programming/Codeabbey/035/rondo.devil.cc
https://raw.githubusercontent.com/gravoo/codeabbey/master/Savings%20Calculator.cpp
https://raw.githubusercontent.com/AleksandrSD/CodeAbbeyProblems/master/Problem35/Program.cs
https://raw.githubusercontent.com/pastelito02/Challenges-sol/master/Programming/Codeabbey/035/pabloperezp96.d
https://raw.githubusercontent.com/pastelito02/Challenges-sol/master/Programming/Codeabbey/035/istudent.go
https://raw.githubusercontent.com/pastelito02/Challenges-sol/master/Programming/Codeabbey/035/h42.hs
https://raw.githubusercontent.com/meganroche/CodeAbbeySolutions/master/Java/SavingsCalc.java
https://raw.githubusercontent.com/McQuinTrix/CodeAbbey/master/35.%20Savings%20Calculator.js
https://raw.githubusercontent.com/pastelito02/Challenges-sol/master/Programming/Codeabbey/035/Daraysen.lisp
https://raw.githubusercontent.com/pastelito02/Challenges-sol/master/Programming/Codeabbey/035/tinbtinb.lua
https://raw.githubusercontent.com/pastelito02/Challenges-sol/master/Programming/Codeabbey/035/accrani21.php
https://raw.githubusercontent.com/pastelito02/Challenges-sol/master/Programming/Codeabbey/035/dferrans.pl
https://raw.githubusercontent.com/Xzya/CodeAbbeySolutions/master/SavingsCalculator.py
https://raw.githubusercontent.com/pastelito02/Challenges-sol/master/Programming/Codeabbey/035/fridxfridx.rb
https://raw.githubusercontent.com/YetAnotherMinion/YAMScratch/master/CodeAbbey/rust-sol/src/35.rs
https://raw.githubusercontent.com/mmcdon20/code_abbey/master/src/main/scala/Abbey035.scala
https://raw.githubusercontent.com/pastelito02/Challenges-sol/master/Programming/Codeabbey/035/sromander1.vb
