https://raw.githubusercontent.com/nayuki/Project-Euler-solutions/master/java/p025.java
https://raw.githubusercontent.com/kdungs/euler/master/025/euler_25.py
https://raw.githubusercontent.com/zsiciarz/euler.rs/master/src/solutions/problem25.rs
