26
49 14 25
69 19 20
27 21 10
477 19 30
49 17 29
108 12 21
120 24 11
12 24 18
16 13 30
14 20 17
11 17 15
415 15 16
80 14 11
28 23 13
88 15 26
244 14 28
199 27 30
12 17 19
49 24 16
124 22 10
103 12 30
15 13 28
12 24 27
58 24 14
22 14 16
293 25 14
