https://resources.infosecinstitute.com/metasploitable-1-walkthrough/
https://metasploit.help.rapid7.com/docs/metasploitable-2-exploitability-guide
https://stuffwithaurum.blog/2015/06/14/metasploitable-2-walkthrough-an-exploitation-guide/
https://subscription.packtpub.com/book/networking_and_servers/9781783289592/6/ch06lvl1sec56/metasploitable-postgresql
https://medium.com/@cryptocracker99/a-penetration-testers-guide-to-postgresql-d78954921ee9
https://charlesreid1.com/wiki/Metasploitable/Postgres
https://blog.g0tmi1k.com/2010/07/metasploitable-postgresql/
https://mundo-hackers.weebly.com/puerto-5432---postgresql.html
https://www.hackplayers.com/2011/01/guia-de-metasploitable-episodio-2.html
http://hacknode.blogspot.com/2012/06/guia-de-explotabilidad-de.html
https://blog.cobaltstrike.com/2013/02/06/getting-started-with-armitage-and-the-metasploit-framework-2013/
https://stuffwithaurum.blog/2015/06/13/metasploitable-walkthrough-an-exploitation-guide/
https://salamancageek.blogspot.com/2016/08/intrusion-metasploitable-parte-7.html
