https://raw.githubusercontent.com/hscorpion/writeups/master/plaid2019/README.md
https://github.com/zhengzufu/ctf/tree/master/2019/2019-04-13-plaidctf#a-whaley-good-joke
http://furutsuki.hatenablog.com/#Misc-150pts97-solvesA-Whaley-Good-Joke
