https://blog.0x80.org/solving-overthewire/#level1
https://raw.githubusercontent.com/livz/otw-vortex/master/Level%201/vortex1.c
https://raw.githubusercontent.com/luceatnobis/challenges/master/overthewire.org/vortex/1/1.py
