https://www.youtube.com/watch?v=7M-R6U2i5iI&t=3s
https://www.youtube.com/watch?v=Zkb1fZjNRLc&t=32s
https://www.youtube.com/watch?v=ivvTrTie16I&t=2s
https://www.youtube.com/watch?v=tZcHyaMR3oc
https://www.youtube.com/watch?v=bC10UV8cWUw&t=15s
https://www.youtube.com/watch?v=SHmQ3sQFeLE&t=3s
https://www.youtube.com/watch?v=AGJQfWSgC9U
https://www.youtube.com/watch?v=ReMtnfs8nxA
https://www.youtube.com/watch?v=JMq0rQF_1-c
https://www.youtube.com/watch?v=mLc-Nh_2KCI
https://www.cnblogs.com/hack404/p/10386938.html
https://zhuanlan.zhihu.com/p/105003724
https://blog.csdn.net/weixin_30781775/article/details/97314487
