https://raw.githubusercontent.com/KingMob/cryptopals-crypto-challenges/master/src/app/set2.clj
https://raw.githubusercontent.com/JarLob/MatasanoCryptoChallenge/master/Tests/Set2.cs
https://raw.githubusercontent.com/ysmolsky/cryptopals-matasano-solutions/master/15/main.go
https://raw.githubusercontent.com/ilchen/cryptopals/master/src/main/java/com/cryptopals/Set2.java
https://raw.githubusercontent.com/stripedpajamas/cryptopals/master/set2/7.js
https://raw.githubusercontent.com/lt/php-cryptopals/master/Cryptopals/Set2/Challenge15/Solution15.php
https://raw.githubusercontent.com/jaybosamiya/cryptopals-solutions/master/set2/15/run.py
https://raw.githubusercontent.com/technion/matasano_challenge/master/set2/chal15/chal15.rb
https://raw.githubusercontent.com/Daeinar/cryptopals/master/src/c15.rs
