https://greg.molnar.io/news/2017/05/15/orcus-walkthrough.html
https://g0blin.co.uk/orcus-vulnhub-writeup/
https://0metasecurity.com/blog/2017/Vulnhub-Orcus-walkthrough.html
https://reedphish.wordpress.com/2017/04/15/hackfest-2016-orcus-walkthrough/
https://github.com/Hamza-Megahed/CTFs/blob/master/orcus/README
https://1evilcomrade.blogspot.com/2017/03/solving-hackfest2016-orcus-vm.html
https://blog.spentera.com/2017/03/25/hackfest-2016-orcus-walkthrough/
https://two06.blogspot.co.uk/2017/03/hackfest-2016-orcus-ctf-writeup.html
https://vdbaan.github.io/walkthrough/Orcus
https://marghost.wordpress.com/2017/03/22/ctf-orcus-from-viper-hackfest-2016/
https://mrh4sh.github.io/orcus-solution
https://www.jumpingbean.co.za/blogs/mark/ceh-training-vulnhub-walkthrough
https://raw.githubusercontent.com/dhn/write_ups/master/boot2root/2017_hackfest2016-orcus.txt
https://www.youtube.com/watch?v=9mCGbytS4z0
https://www.youtube.com/watch?v=_pbHejd2ncc
