https://raw.githubusercontent.com/Sureshkumars/HackerRank-Solutions/master/k%20candy%20store.c
https://raw.githubusercontent.com/ehotinger/HackerRank/master/Candies/Solution.cpp
https://raw.githubusercontent.com/HamidTheGeek/HackerRankSolutions/master/Solutions/Candies.cs
https://raw.githubusercontent.com/havelessbemore/hackerrank/master/algorithms/dynammic_programming/candies.java
https://raw.githubusercontent.com/nastra/hackerrank/master/src/main/python/candies.py
