https://raw.githubusercontent.com/zyjsuper/root-me-4/master/Web-Server/SQL%20Injection%20-%20Authentication
https://www.youtube.com/watch?v=F1Tm4b57ors
https://www.youtube.com/watch?v=Y7WXxmWKfxs
https://www.youtube.com/watch?v=TSqXkkOt6oM
https://www.youtube.com/watch?v=J6v_W-LFK1c
https://www.youtube.com/watch?v=glScQ9qqMlI
https://www.youtube.com/watch?v=lhz0M1X5aCI
https://www.youtube.com/watch?v=0_AN5FKsxaw
https://www.youtube.com/watch?v=SJgYdTckMBY
https://codeasy.nl/hacking/root-me-antwoorden/sql-injection-authentication/
