13
183 170 199 508 454 232 161 290 373 166 297 200 429 106 392 0
811 779 155 359 563 789 822 0
9850 8706 9963 9771 11717 15788 15189 1700 15636 13317 9112 0
290 606 980 690 438 167 448 0
468 847 1292 1186 1971 820 781 1121 637 2012 161 1883 0
7231 4144 7350 6857 2610 3714 861 5705 6033 5705 5347 0
209 217 199 76 20 49 237 168 39 0
179 164 5 200 143 153 147 113 0
565 862 1887 780 240 1348 0
553 1648 4792 7491 8013 0
2755 13202 10545 5247 2159 11124 316 12596 11415 13052 5322 4803 6020 12510 0
322 6685 6199 3441 7645 3395 4073 5758 3948 0
406 693 172 395 865 997 31 169 108 726 189 896 0
