https://catatansiical.blogspot.com/2015/06/writeup-telnet-authentication-root-me.html
https://medium.com/secttp/root-me-network-telnet-authentication-1198f2af3efe
https://github.com/sfpskywood/babyctf/blob/master/doc/1.3_network.md#telnet-authentication
