https://www.youtube.com/watch?v=i5BNQ4oDXwY
http://rootable.tistory.com/entry/webhackingkr-23%EB%B2%88-%EB%AC%B8%EC%A0%9C
http://rogiry.tistory.com/51
http://beatsloth.tistory.com/1215
http://lureout.tistory.com/516
http://threethree.tistory.com/12
http://artology.tistory.com/entry/webhackingkr-23%EB%B2%88
http://limjunyoung.tistory.com/68
http://leeggoggal.tistory.com/42
