https://github.com/bsqrl/juice-shop-walkthrough#1-find-the-carfully-hidden-score-board-page
https://github.com/apox64/OWASP-Juice-Shop-Write-Up/blob/master/juice-shop-writeup.md#1-find-the-carefully-hidden-score-board-page
https://github.com/bkimminich/pwning-juice-shop/blob/master/appendix/solutions.md#find-the-carefully-hidden-score-board-page
https://www.youtube.com/watch?v=Cz37iejTsH4
http://m4l1ce.me/writeups/2017/01/09/juice-shop.html
https://null-byte.wonderhowto.com/how-to/beginners-guide-owasp-juice-shop-your-practice-hacking-grounds-for-10-most-common-web-app-vulnerabilities-0185103/
https://incognitjoe.github.io/hacking-the-juice-shop.html
https://n0j.github.io/2018/08/01/owasp-juice-shop-v7.3.0-level-2.html
https://bkimminich.gitbooks.io/pwning-owasp-juice-shop/content/appendix/solutions.html
https://raw.githubusercontent.com/apox64/OWASP-Juice-Shop-Write-Up/master/juice-shop-writeup.md
