https://raw.githubusercontent.com/iandioch/solutions/master/hackerrank/challenges/mini-max-sum/solution.c
https://raw.githubusercontent.com/derekhh/HackerRank/master/domains/algorithms/implementation/mini-max-sum.cpp
https://raw.githubusercontent.com/RyanFehr/HackerRank/master/Algorithms/Warmup/Mini-Max%20Sum/Solution.cs
https://raw.githubusercontent.com/rishabh1403/hackerrank-golang-solutions/master/practice/algorithms/warmup/mini-max-sum.go
https://raw.githubusercontent.com/frddl/hackerrank/master/mini-max-sum.java
https://raw.githubusercontent.com/qriklix/hackerrank/master/algorithms/01-warmup/08-mini-max-sum.js
https://raw.githubusercontent.com/danhenriquesc/hackerrank/master/algorithms/warmup/mini_max_sum.php
https://raw.githubusercontent.com/Amos94/-HackerRank-Python-Mini-Max-Sum/master/solution.py
https://raw.githubusercontent.com/PaulNoth/hackerrank/master/practice/algorithms/implementation/mini-max_sum/min_max_sum.rb
https://raw.githubusercontent.com/pbrit/hackerrank-rust/master/mini-max-sum/src/main.rs
https://raw.githubusercontent.com/PaulNoth/hackerrank/master/practice/algorithms/implementation/mini-max_sum/MinMaxSum.scala
https://raw.githubusercontent.com/mminer/hackerrank/master/mini-max-sum.swift
