https://github.com/VulnHub/ctf-writeups/raw/master/2018/angstromctf/web/madlibs.md
https://medium.com/bugbountywriteup/angstrom-ctf-2018-web-challenges-writeup-8a69998b0123
https://rawsec.ml/en/angstromctf-2018-write-ups/
