http://sp4hack.blogspot.com.co/2012/10/hack-this-site-stego-1.html
https://hackthissitesoltution.wordpress.com/2011/01/14/stego-missions/
https://raw.githubusercontent.com/attilathedud/HackThisSite/master/Stego/README.md
https://www.youtube.com/watch?v=fK3pmCKEB5I
https://github.com/Wh1t3Fox/hackthissite/tree/master/stego/challenge_1
https://github.com/divyanshusahu/HackThisSite/tree/master/Stego
