https://pengyang.me/2018/08/09/sqli-l5/
https://www.cnblogs.com/lcamry/p/6122257.html
https://chybeta.github.io/2017/07/12/Sqli-Labs-Less5-6-writeup/
https://www.jianshu.com/p/8a38d2371b9c
https://www.youtube.com/watch?v=9utdAPxmvaI&feature=emb_logo
http://p0desta.com/2018/01/28/Sqli_labs%E9%80%9A%E5%85%B3%E6%96%87%E6%A1%A3/
https://damit5.com/2018/05/11/%E9%80%9A%E8%BF%87-sqli-labs-%E5%AD%A6%E4%B9%A0SQL%E6%B3%A8%E5%85%A5/
https://zerokeeper.com/web-security/sqlilibs-learning-notes-1-10-off.html
https://skysec.top/2017/07/18/SQLi-LABS(Basic)(Less-1%20~%20Less-22)/#Less-5
https://www.youtube.com/watch?v=zaRlcPbfX4M
https://www.youtube.com/watch?v=9utdAPxmvaI
https://resources.infosecinstitute.com/tutorial-on-sqli-labs/
https://raw.githubusercontent.com/gr4vit0n/sqli-labs-solution/master/less15.py
https://www.cdxy.me/?p=474
https://github.com/WangYihang/sqli-labs/blob/master/writeup/Lesson-05.md
