https://raw.githubusercontent.com/BlakeBrown/HackerRank-Solutions/master/Algorithms/Strings/Pangrams.cpp
https://raw.githubusercontent.com/leeychee/hackerrank/master/practice/algorithms/strings/pangrams/main.go
https://raw.githubusercontent.com/charles-wangkai/hackerrank/master/pangrams/Solution.java
https://raw.githubusercontent.com/danhenriquesc/hackerrank/master/algorithms/strings/pangrams.php
https://raw.githubusercontent.com/danhenriquesc/hackerrank/master/algorithms/strings/pangrams.py
https://raw.githubusercontent.com/raghav97/Hackerrank-Solutions/master/pangrams.rb
https://raw.githubusercontent.com/witekbobrowski/HackerRank/master/Algorithms/Strings/panagrams.swift
