https://github.com/bsqrl/juice-shop-walkthrough#17-access-a-confidential-document
https://github.com/apox64/OWASP-Juice-Shop-Write-Up/blob/master/juice-shop-writeup.md#5-access-a-confidential-document
https://github.com/bkimminich/pwning-juice-shop/blob/master/appendix/solutions.md#access-a-confidential-document
https://ryan-villarreal.com/2018/06/29/juice-shop-walkthrough-part-1/
https://incognitjoe.github.io/hacking-the-juice-shop.html
https://bkimminich.gitbooks.io/pwning-owasp-juice-shop/content/appendix/solutions.html
https://www.youtube.com/watch?v=2JeY6nRjw7E&list=PLelhKCa4OeJN56V4KF-CglBV15oS7MQUK&index=3
https://raw.githubusercontent.com/apox64/OWASP-Juice-Shop-Write-Up/master/juice-shop-writeup.md
https://raw.githubusercontent.com/bsqrl/juice-shop-walkthrough/master/README.md
https://raw.githubusercontent.com/bkimminich/pwning-juice-shop/master/appendix/solutions.md
