https://www.irongeek.com/i.php?page=videos/web-application-pen-testing-tutorials-with-mutillidae
https://youtu.be/0f1VYxHWz90
https://youtu.be/C_3I6IpbP78
https://pentestlab.blog/2013/06/26/html-injection/
https://hydrasky.com/network-security/html-injection/
http://y2u.be/0f1VYxHWz90
https://www.youtube.com/watch?v=efHdM5grGkI&list=PLZOToVAK85MrsyNmNp0yyUTBXqKRTh623&index=22
https://pentestlab.blog/tag/mutillidae/
http://edublog.bitcrack.net/2016/11/mutillidae-owasp-top-10-a1-injection.html
https://www.irongeek.com/i.php?page=videos/web-application-pen-testing-tutorials-with-mutillidae#html-injection-to-popup-fake-login-form-and-capture-credentials
https://www.youtube.com/watch?v=sLdxy1u2pdo&list=PLWPirh4EWFpESKWJmrgQwmsnTrL_K93Wi&index=22
https://www.youtube.com/watch?v=0f1VYxHWz90&list=PLZOToVAK85MrsyNmNp0yyUTBXqKRTh623&index=68
