https://raw.githubusercontent.com/DionysiosB/CodeAbbey/master/CombinationsCounting.cpp
https://raw.githubusercontent.com/AleksandrSD/CodeAbbeyProblems/master/Problem128/Program.cs
https://raw.githubusercontent.com/pastelito02/Challenges-sol/master/Programming/Codeabbey/128/Ratzenfutz.d
https://raw.githubusercontent.com/pastelito02/Challenges-sol/master/Programming/Codeabbey/128/Hennes.hs
https://raw.githubusercontent.com/KlaudioVito/CodeAbbey/master/CombinationsCounting.java
https://raw.githubusercontent.com/pastelito02/Challenges-sol/master/Programming/Codeabbey/128/kittyaurel.jl
https://raw.githubusercontent.com/pastelito02/Challenges-sol/master/Programming/Codeabbey/128/JMontanoS.js
https://raw.githubusercontent.com/pastelito02/Challenges-sol/master/Programming/Codeabbey/128/memstick.lua
https://raw.githubusercontent.com/pastelito02/Challenges-sol/master/Programming/Codeabbey/128/stefan.schmiedl.ml
https://raw.githubusercontent.com/pastelito02/Challenges-sol/master/Programming/Codeabbey/128/Dant12345.php
https://raw.githubusercontent.com/pastelito02/Challenges-sol/master/Programming/Codeabbey/128/pearl_barley.pl
https://raw.githubusercontent.com/ValeWasTaken/CodeAbbey_Solutions/master/Python/id128-Combinations_Counting.py
https://raw.githubusercontent.com/pastelito02/Challenges-sol/master/Programming/Codeabbey/128/pinkloyd.rb
https://raw.githubusercontent.com/pastelito02/Challenges-sol/master/Programming/Codeabbey/128/subarenev.rs
https://raw.githubusercontent.com/AlexMckey/CodeAbbey_Scala/master/src/CombinationsCounting.scala
https://raw.githubusercontent.com/JesseClarkND/codeabbey_in_C-NET/master/Combinations%20Counting
