https://raw.githubusercontent.com/mzet-/ctf-writeups/master/DVWA/dvwa-low.md
https://www.homelab.it/index.php/2016/01/14/dvwa-sql-injection/index.html
https://pentestlab.blog/2012/09/18/sql-injection-exploitation-dvwa/
https://samiux.blogspot.com/2013/08/howto-dvwa-sql-injection.html
https://www.information-security.fr/dvwa-sql-injection-solutions-protections/
https://raw.githubusercontent.com/keewenaw/dvwa-guide-2019/master/low/Challenge%2007%3A%20SQL%20Injection.md
http://vipulchaskar.blogspot.com/2012/11/sql-injection-2_8453.html
https://ethicalhackneox.wordpress.com/2015/10/13/sql-injection-dvwa-tarea-5/
https://hackingparanovatos.wordpress.com/2017/08/31/dvwa-sql-injection-completo/
https://scxo1oc06c.blogspot.com/2012/02/dvwa-blind-sql-injection-low-level.html
https://www.computersecuritystudent.com/SECURITY_TOOLS/DVWA/DVWAv107/lesson6/
https://www.creadpag.com/2018/05/vulnerability-sql-injection-dvwa-en.html
https://www.opentechinfo.com/sql-injection/
https://www.youtube.com/watch?v=KSjzvpZb4_k
https://www.youtube.com/watch?v=ou5a1kzyrZA
https://pentest-tools.com/blog/sql-injection-attacks/
https://www.youtube.com/watch?v=KmbMtiOfTnQ
https://medium.com/hacker-toolbelt/dvwa-1-9-viii-blind-sql-injection-with-sqlmap-ee8d59fbdea7
https://annals-csis.org/Volume_10/drp/pdf/66.pdf
https://www.peerlyst.com/posts/tips-for-an-information-security-analyst-pentester-career-ep-12-blind-sql-injection-with-dvwa-mattia-campagnano-13-years-experience-akron-oh
https://tecno-devs.blogspot.com/2018/07/ataques-web-demostracion-sql-injection.html
https://www.scribd.com/document/359170088/Briceno-Jimenez-edgar-Favian-Realizar-Ataques-SQL-Injection-Contra-La-Aplicacion-DVWA
https://www.clubensayos.com/Tecnolog%C3%ADa/Ataque-Sql-Injection-DVWA/4481976.html
https://www.cybrary.it/0p3n/sql-injection-lab-part-2-dvwa-login-low-security-level-submit/
http://martra.uadla.com/2017/03/19/jugando-con-los-sql-injection/
