https://raw.githubusercontent.com/HamidTheGeek/HackerRankSolutions/master/Solutions/TheGridSearch.cs
https://raw.githubusercontent.com/leeychee/hackerrank/master/practice/algorithms/implementation/the_grid_search/main.go
https://raw.githubusercontent.com/charles-wangkai/hackerrank/master/the-grid-search/Solution.java
