https://tuonilabs.wordpress.com/2016/12/17/overthewire-behemoth-write-up/
http://r4stl1n.github.io/2014/12/14/OverTheWire-Behemoth0.html
http://blog.zairo.kr/entry/OverTheWire-%E2%80%93-Behemoth-Level-0?category=570169
https://sithlab.tistory.com/443
https://www.rootnetsec.com/overthewire.org-behemoth-1/
https://security-times.net/behemoth-level-0-level-1
https://raw.githubusercontent.com/USCGA/writeups/master/overthewire/behemoth/level0/README.md
https://raw.githubusercontent.com/dc865/writeups/master/Behemoth.md
https://securitytimes.wordpress.com/2018/01/31/behemoth101/
http://perso.heavyberry.com/articles/2017-07/behemoth-00
https://nicolagatta.blogspot.com/2019/06/overthewireorg-utumno-level-1-writeup.html?view=flipcard
http://hacktracking.blogspot.com/2013/03/behemoth-wargame-level-0.html
https://medium.com/secttp/overthewire-bandit-level-23-424786d305bf
https://raw.githubusercontent.com/dc865/writeups/master/Krypton.md
