https://martra.uadla.com/2017/03/19/jugando-con-los-sql-injection/
https://medium.com/@rafaelrenovaci/dvwa-solution-sql-injection-blind-sqlmap-cd1461ad336e
https://tecno-devs.blogspot.com/2018/07/ataques-web-demostracion-sql-injection.html
https://www.youtube.com/watch?v=cMXqi8T0Ooo
https://www.youtube.com/watch?v=F4tXa0tmTKo
https://www.youtube.com/watch?v=q2EkWm9kfKE&feature=youtu.be
https://zwerd.com/2018/02/15/SQL-Injection.html
