https://raw.githubusercontent.com/ozan/solutions/master/hackerrank/solve-me-first.c
https://raw.githubusercontent.com/RyanFehr/HackerRank/master/Algorithms/Warmup/Solve%20Me%20First/Solution.cs
https://raw.githubusercontent.com/rishabh1403/hackerrank-golang-solutions/master/practice/algorithms/warmup/solve-me-first.go
https://raw.githubusercontent.com/RyanFehr/HackerRank/master/Algorithms/Warmup/Solve%20Me%20First/Solution.java
https://gist.githubusercontent.com/fotisoikonomou/e471eb705e0f4992b7720485b9072ae3/raw/b97ff56ce3165184075a915423c0d37c984d66b3/solution.js
https://raw.githubusercontent.com/fahdi/solve-me-first/master/solve-me-first.php
https://raw.githubusercontent.com/danhenriquesc/hackerrank/master/algorithms/warmup/solve_me_first.py
https://raw.githubusercontent.com/rofrol/rust-hackerrank/master/src/bin/solve-me-first.rs
https://raw.githubusercontent.com/posquit0/HackerRank/master/Functional-Programming/Introduction/solve-me-first.scala
https://raw.githubusercontent.com/witekbobrowski/HackerRank/master/Algorithms/Warmup/solve-me-first.swift
