20
23706 12923 31536
14846756 24090842 25
327217 233627 2786
2 4377 99017
39865 52800 9324
5586556 5376026 70
3598 2659 228862
58 46 9848231
2653972 1363851 322
1836 39874 22577
5783 10471 95306
1 1 551215141
9749 8169 80299
1854 7574 17393
86507 43814 8556
27 7 31227258
931 268 676481
1 1 671171624
639 897 632571
10214309 7944690 84
