http://eng.omegaton.com/2017/03/lampsecurity-ctf8-walkthrough_18.html
https://highon.coffee/blog/lamp-security-ctf8-walkthrough/
https://download.vulnhub.com/lampsecurity/lampsec_ctf8.pdf
https://www.singlehop.com/blog/ctf-damo-security-challenge-8-walkthrough/
http://devloop.users.sourceforge.net/index.php?article101/solution-du-lampsecurity-ctf-8
https://djhohnstein.wordpress.com/2015/10/08/lampsec-ctf-8-write-up/
https://www.youtube.com/watch?v=_OWq4x7grrw
https://www.hackingarticles.in/hack-the-lampsecurity-ctf8-ctf-challenge-2/
https://www.thecybersploit.com/2019/04/lamp-security-ctf8-walk-through.html
https://blog.csdn.net/woaisk/article/details/97747851
https://v-s.mobi/lamp-security-ctf8-33:53
https://repo.zenk-security.com/Techniques%20d.attaques%20%20.%20%20Failles/LAMPSecurity%20Projet-ctf8.pdf
https://susiecybersecurity.wordpress.com/2017/06/18/owasp-security-shepherd-csrf-writes-up/
