https://github.com/o2platform/Demos_Files/blob/master/HacmeBank_v2.0%20(7%20Dec%2008)/Foundstone%20Hacme%20Bank%20User%20and%20Solution%20Guide%20v2.0.pdf
https://www.youtube.com/watch?v=_piYmq4MgKU
https://www.youtube.com/watch?v=iawyJWkNOEU
