https://raw.githubusercontent.com/Koltharius/andreyglauzer.github.io/3d08051b5ea6f39e2b5f7dcd10f19082667b49d7/_posts/2016-04-19-analisando-vulnerabilidades-com-sqlmap.md
https://raw.githubusercontent.com/erose1337/penetration_testing/5d04ac21b2ab104a0b1700a4d2e40416c9156d37/sqlmap/tabledump.py
https://raw.githubusercontent.com/aniketp/Exploits/5b50131a8df4227707234dcceaacded7370fc3a0/LCEH1/Union%20Based%20Injection.txt
https://www.youtube.com/watch?v=SyRFpLSIK-E
