https://skysec.top/2017/07/18/SQLi-LABS(Basic)(Less-1%20~%20Less-22)/#Less-8
https://www.youtube.com/watch?v=u7Z7AIR6cMI
https://resources.infosecinstitute.com/tutorial-on-sqli-labs/
https://raw.githubusercontent.com/gr4vit0n/sqli-labs-solution/master/less08.py
https://huirongis.me/2016/08/26/sqli-labs-series-lesson8-10/
https://blog.csdn.net/x728999452/article/details/52197999
https://segmentfault.com/a/1190000015793662
http://www.securitytube.net/video/4326
http://dummy2dummies.blogspot.com/2012/06/sqli-labs-series-part-8.html
https://www.cdxy.me/?p=474
https://zerokeeper.com/web-security/sqlilibs-learning-notes-1-10-off.html
http://www.langzi.fun/Sqli%20Labs%208%20%E5%AE%9E%E6%88%98%E7%AC%94%E8%AE%B0.html
http://itren.xiaolee.net/p/1761602.html
https://raw.githubusercontent.com/WangYihang/sqli-labs/master/writeup/Lesson-08.md
https://flora.gitbooks.io/web-application-security/sqli-labs_lesson-8.html
