https://medium.com/@a.hilton83/skydog-2016-catch-me-if-you-can-vm-vulnhub-com-2a4aa4aea4ce?source=user_profile---------3----------
https://reedphish.wordpress.com/2017/01/08/skydog-con-ctf-2016-catch-me-if-you-can-walkthrough/
https://www.fwhibbit.es/skydog-con-ctf-2016-catch-me-if-you-can
https://habrahabr.ru/post/317878/
https://www.youtube.com/watch?v=kO0vwn2VuOc
https://cqdeof.blogspot.co.uk/2016/11/vulnhub-walkthrough-skydogcon-ctf-2016.html
http://www.hackingarticles.in/hack-skydog-con-ctf-2016-catch-can-vm/
https://professionalhackerdigest.blogspot.co.uk/2016/11/vulnhub-skydogcon-ctf-2016-walkthrough.html
http://www.mrb3n.com/?p=404
http://ext4.co/resolviendo-skydog-vulnhub/
https://lockelamora.github.io/skydog-vulnhub/
https://www.jamesbower.com/skydog-con-2016-ctf/
https://www.youtube.com/watch?v=k1iFjyrsQqI
