https://raw.githubusercontent.com/tettouat/root-me_cracking/master/ELF%20-%200%20protections/hints
https://johannesbader.ch/2015/05/crackmes-de-matteos-keygenme/
https://johannesbader.ch/2015/04/crackmes-de-simple-res-crackme-v03/
https://johannesbader.ch/2015/04/crackmes-de-greedy-flys-crackme-v20/
https://johannesbader.ch/2015/04/crackmes-de-souhails-climb/
https://johannesbader.ch/2014/12/crackmes-de-josamonts-j666/
https://johannesbader.ch/2014/12/crackmes-de-sx0rs-crackme1-by-sx0r/
https://johannesbader.ch/2014/10/crackmes-de-greedy_flys-crackme-v-1-3/
https://johannesbader.ch/2014/08/crackmes-de-twistedtuxs-first-keygenme/
https://gh057pr1nc3blog.wordpress.com/2017/06/19/challenge-1-elf-0-protection/
https://thinbashane.wordpress.com/2015/10/22/root-me-cracking-elf-0-protections/
https://codeasy.nl/hacking/root-me-antwoorden/elf-0-protection/
