http://www.reydes.com/d/?q=Cross_Site_Scripting_XSS_Reflejado_en_Mandiant_Struts_Forms
https://www.securityartwork.es/2010/03/10/owasp-top-10-ii-xss/
https://www.owasp.org/index.php/Testing_for_Reflected_Cross_site_scripting_(OTG-INPVAL-001)
https://www.netsparker.com/blog/web-security/dom-based-cross-site-scripting-vulnerability/
https://pentest-tools.com/blog/xss-attacks-practical-scenarios/
https://labs.detectify.com/2012/11/07/how-to-exploit-an-xss/
https://www.contrastsecurity.com/security-influencers/hubspot-vulnerability-fixed-cross-site-scripting-xss-in-the-cloud
https://phpsecurity.readthedocs.io/en/latest/Cross-Site-Scripting-(XSS).html
https://www.softwaretestinghelp.com/cross-site-scripting-xss-attack-test/
https://www.theurbanpenguin.com/php-xss-example-and-prevention/
https://www.youtube.com/watch?v=De9KJqA55mE
https://www.acunetix.com/blog/web-security-zone/how-to-verify-a-cross-site-scripting-vulnerability/
