https://www.youtube.com/watch?v=oYfunlMKGAU&t=4s
https://www.youtube.com/watch?v=6-zJQ-xYCmE
https://www.youtube.com/watch?v=FxUolw8oHpc
https://www.youtube.com/watch?v=HD8xoygOlaA
https://www.youtube.com/watch?v=jM4T3yQ0J0g
https://www.youtube.com/watch?v=aoHDzvWTrN4
https://www.youtube.com/watch?v=ogahBedx6tA
http://www.reydes.com/d/?q=Realizar_un_Ataque_de_Negacion_de_Servicio_DoS_contra_bWAPP
https://www.youtube.com/watch?v=pv8wkXjpPdk
https://www.link11.com/en/blog/ssl-ddos-attacks-and-how-to-defend-against-them/
