https://raw.githubusercontent.com/djcomidi/netforce/master/steganography/level803/solution.py
https://www.youtube.com/watch?v=zGgo7TG85Ys
https://resources.infosecinstitute.com/defeating-steganography-solutions-to-net-force-ctf-challenges-using-practical-steganalysis/#gref

