https://raw.githubusercontent.com/Gamer1092/Coderbyte/Easy/AB%20Check.cpp
https://raw.githubusercontent.com/Nigelmnz/CoderbyteSolutions/master/11-ABCheck/11.hs
https://raw.githubusercontent.com/TheAaronCovington/Java-Coderbyte-Solutions/master/11ABCheck.java
https://raw.githubusercontent.com/ZLester/Coderbyte-Solutions/master/Easy/11%20-%20AB%20Check.js
https://raw.githubusercontent.com/alecashford/Coderbyte-Solutions-Python/master/ab_check.py
https://raw.githubusercontent.com/brbcoding/Coderbyte/master/Easy/ABCheck.rb
https://raw.githubusercontent.com/designerGenes/CoderbyteInSwift/master/ABCheck/ABCheck.playground/Contents.swift
