https://raw.githubusercontent.com/zyjsuper/root-me-4/master/Web-Server/LDAP%20Injection-Authentication
https://www.youtube.com/watch?v=wtahzm_R8e4
https://www.youtube.com/watch?v=S2mQBXcW3P0
https://www.youtube.com/watch?v=OnfSeRnpR0U
https://www.youtube.com/watch?v=TDv2dZnzE6Y
https://www.youtube.com/watch?v=K0q10q9BQAk
https://taind.wordpress.com/2018/01/03/root-me-ldap-injection-authentication/
https://jeonyoungsin.tistory.com/290
