https://www.youtube.com/watch?v=JtXeD9pNznA&feature=youtu.be&t=1m50s
https://c6h0st.wordpress.com/2015/06/15/writeup-canyouhack-it-web-based-challenge/
https://raw.githubusercontent.com/pastelito02/Challenges-sol/master/canyouhackit/Web/Solution05.lst
