https://secgeek.net/solutions-for-xss-waf-challenge/
https://gist.githubusercontent.com/antoinebrl/f7b4d7a1b4465a739d8b/raw/95c09f726c494d57df88d86883890334820e1bd3/GoogleXSSChallenge-Solutions.md
https://www.mehmetince.net/xss-bypass-challenge-2-solutions/
https://www.doyler.net/security-not-included/google-xss-game
https://raw.githubusercontent.com/matachi/MaTachi.github.io/master/src/pages/solutions-to-the-wargame-xss-challenges-at-xss-quiz-int21h-jp.md
http://www.pwntester.com/tag/xss/
https://sneakerhax.com/walkthrough-pentesterslab-web-for-pentester-i-xss/
https://blog.ka0labs.net/post/15/
https://ctf-time.com/pentester-lab-xss-and-mysql-file-walkthrough/
http://xss-game-solved.blogspot.com/
http://winnierusli.blog.binusian.org/2018/03/02/root-me-webclient-xss-stored-1/
http://exp-blog.com/2019/01/13/pid-2922/
