https://www.hackingarticles.in/hack-the-box-ypuffy-walkthrough/
https://medium.com/@nau71lus/ypuffy-writeup-2b386e37d59c
https://hackso.me/ypuffy-htb-walkthrough/
https://resources.infosecinstitute.com/hack-the-box-htb-walkthrough-ypuffy/#gref
https://0xrick.github.io/hack-the-box/ypuffy/
https://www.youtube.com/watch?v=fcMXhjvSXf4
https://clarkkent-repo.github.io/ypuffy/
https://snowscan.io/htb-writeup-ypuffy/
https://zuber.pro/htb-writeup-ypuffy.html
https://medium.com/@noobintheshell/htb-ypuffy-writeup-b7a666b460d5
https://zineausa.com/blog/2019/02/hackthebox-ypuffy-writeup/
