https://www.youtube.com/watch?v=0OgsUPq-ezg
https://www.youtube.com/watch?v=CY63EbbbpUM
http://sp4hack.blogspot.com/2012/10/hack-this-site-realistic-9.html
https://www.aldeid.com/wiki/Hackthissite/Realistic/Level11
http://zer0byte.com/2011/11/14/hackthissite-org-realistic-mission-1-%E2%80%93-16-walk-throughs/
