https://www.youtube.com/watch?v=A1IZvf7XF20
https://www.youtube.com/watch?v=cEqhlaCpzYA
https://www.youtube.com/watch?v=bBgdHS7i-dc
https://www.youtube.com/watch?v=74IdGmx5oQ0
https://www.aldeid.com/wiki/WackoPicko/Reflected-SQL-Injection
https://www.coursehero.com/file/p5goob7/SQL-Injection-on-the-login-form-is-done-by-injecting-a-known-string-1-or-1-1/
