https://raw.githubusercontent.com/RyanLafferty/CodeAbbey/master/p15.c
https://raw.githubusercontent.com/spokenlore/CodeAbbey/master/Beginner/6.%20maxOfArray/maxOfArray.cpp
https://raw.githubusercontent.com/Tempurturtul/CodeAbbey/master/C%23/MaxOfArray.cs
https://raw.githubusercontent.com/SebastianHerrera/DartProblems/master/min_of_array.dart
https://raw.githubusercontent.com/skilled19/sols/master/Mohamed%20Aziz-15-maximum-of-array.fs
https://raw.githubusercontent.com/danielmmetz/codeabbey/master/id15.hs
https://raw.githubusercontent.com/meganroche/CodeAbbeySolutions/master/Java/AvgArray.java
https://raw.githubusercontent.com/DylanLenz/codeAbbey_Solutions_JavaScript/master/maximumOfArray_codeAbbey_15.js
https://raw.githubusercontent.com/mpeshehonov/Codeabbey/master/practice/%2315/index.php
https://raw.githubusercontent.com/vinitkantrod/codeabbey-Solutions-in-Python/master/6_maximum_of_array.py
https://raw.githubusercontent.com/marclerodrigues/ruby_exercises/master/max_of_array.rb
https://gitlab.com/CodeArtisan/codeabbey/raw/master/problem_15/solution.rkt
https://raw.githubusercontent.com/mmcdon20/code_abbey/master/src/main/scala/Abbey015.scala
https://pastebin.com/raw/99pNkzLV
https://pastebin.com/raw/G7diUuCR
https://pastebin.com/raw/VqrRQQTU
https://pastebin.com/raw/ZuYpwFHM
https://pastebin.com/raw/fWtHUPzC
https://pastebin.com/raw/p8d4ak48
https://pastebin.com/raw/pjCw7HiR
https://pastebin.com/raw/rN728bGe
https://pastebin.com/raw/yiaZ8q1t
https://pastebin.com/raw/yrP9a7dd
