https://www.youtube.com/watch?v=kE36IGAU5rg
https://0xrick.github.io/hack-the-box/ghoul/
https://t3chnocat.com/htb-ghoul/
https://medium.com/bugbountywriteup/hackthebox-ghoul-deb77ff43326
https://snowscan.io/htb-writeup-ghoul/
https://raw.githubusercontent.com/Hackplayers/hackthebox-writeups/master/machines/Ghoul/Mansoor-Ghoul.pdf
https://raw.githubusercontent.com/Hackplayers/hackthebox-writeups/master/machines/Ghoul/fiti-ghoul.pdf
https://raw.githubusercontent.com/Hackplayers/hackthebox-writeups/master/machines/Ghoul/wilsonnkwan-Ghoul.pdf
https://hackso.me/ghoul-htb-walkthrough/
https://nbessler.de/htb-ghoul.html
