https://resources.infosecinstitute.com/the-bodgeit-store-part-1-2/
https://passionforpentesting.com/2018/01/14/the-bodgeit-store-series-2-find-hidden-content-as-a-non-admin-user-bodgeit-infosec-pentest-appsec-webapp/
http://itsorcerer.blogspot.com/2011/11/bodgeit-notes.html
http://www.ctrl-alt-dev.nl/workshops/hyow/resources/hyow/Hack%20your%20own%20Web-App-v1.0.5.pdf
https://thefluffy007.com/2018/01/14/the-bodgeit-store-series-2-find-hidden-content-as-a-non-admin-user-bodgeit-infosec-pentest-appsec-webapp/
http://ender0101.blogspot.com/2014/08/bodgeit.html
