https://hackthissitesoltution.wordpress.com/2011/01/13/extbasic-missions/
https://github.com/attilathedud/HackThisSite/tree/master/ExtBasic
http://c6h4cl2.lab.uy.to/1336
http://sithlab.tistory.com/1336
