https://raw.githubusercontent.com/PlatyPew/picoctf-2018-writeup/master/Cryptography/caesar%20cipher%202/README.md
https://delayma.wordpress.com/2019/02/03/caesar-cipher-2-picoctf-18/
https://medium.com/@root.tusk1/pico-ctf-2018-caesar-cipher-2-writeup-1a3d8bfc3169
https://raw.githubusercontent.com/d4rkvaibhav/picoCTF-2018-Writeups/master/Cryptography/ceasercipher2/README.md
https://raw.githubusercontent.com/james9909/PracticeCTF/master/picoctf-2018/caesar-cipher-2_250/solution.py
https://raw.githubusercontent.com/mzfr/ctf-writeups/master/picoCTF-2018/Cryptography/caesar%20cipher%202/readme.md
https://raw.githubusercontent.com/shiltemann/CTF-writeups-public/master/PicoCTF_2018/writeup.md
https://raw.githubusercontent.com/zst123/picoctf-2018-writeups/master/Solved/caesar_cipher_2/README.md
https://tcode2k16.github.io/blog/posts/picoctf-2018-writeup/cryptography/#caesar-cipher-2
https://www.youtube.com/watch?v=AvlWE31IuhE
https://www.youtube.com/watch?v=kcJmhnXEd4k
