https://github.com/huiwz/CTFLearnSolutions/blob/master/Forensics%20101.md
https://www.bellamangunsong.com/blog/ctflearn-forensics-101/
https://www.youtube.com/watch?v=YXkl77Eh_qQ
http://fkclai.blogspot.com/2018/08/ctflearn-forensics-101-httpsbeta.html
https://github.com/Offliners/CTFlearn-writeup/blob/master/FORENSICS/Forensic%20101/README.md
https://github.com/cerc-undip/CTF-Learn-Writeup/tree/master/forensic_101_COMPLETE
https://drewadwade.github.io/ctfs/2019/CTFLearnEasy.html
