https://raw.githubusercontent.com/nikzsaz/Codeforces-solution/master/845A-Chess_Tourney.cpp
https://raw.githubusercontent.com/o-panda-o/MySolutions/master/Sorting/Code_845A_ChessTourney.java
https://raw.githubusercontent.com/zeyuanxy/code-forces/master/contest/845/A.py
