https://www.youtube.com/watch?v=A4U3xiRWfsU&t=66s
https://www.youtube.com/watch?v=KXmyFGJZE4g
https://www.hackingarticles.in/hack-the-box-challenge-tenten-walkthrough/
https://resources.infosecinstitute.com/hack-the-boxhtb-machines-walkthrough-series-tenten/#gref
https://teck-noobs.blogspot.com/2017/07/htb-tenten-walkthrough.html
https://medium.com/@sdgeek/hack-the-box-htb-tenten-ddd9e6a9e22
https://htb.hackproof.tech/2018/05/tenten-hackthebox-machine-10101010.html?m=1
https://github.com/Kyuu-Ji/htb-write-up/blob/master/tenten/write-up-tenten.md
https://hkh4cks.com/blog/2018/01/01/htb-tenten-walkthrough/
https://blog.barradell-johns.com/index.php/2019/10/16/htb-tenten/
https://www.itsecuritynews.info/hack-the-boxhtb-machines-walkthrough-series-tenten/
https://ca0y1h.top/Target_drone/HackTheBox/6.HTB-Tenten-walkthrough/
https://www.linkedin.com/pulse/hack-box-challenge-tenten-walkthrough-raj-chandel
https://areyou1or0.blogspot.com/2019/07/htb-tenten-walkthrough.html
https://redteamtutorials.com/2018/10/06/hack-the-box/
https://www.youtube.com/watch?v=CwdJTrUvC5s
