https://pentester.land/challenge/2018/07/10/owasp-broken-web-apps-owasp-bricks-challenge-walkthrough.html#upload-1
https://sechow.com/bricks/docs/file-upload-1.html
https://www.youtube.com/watch?v=N6SAzEkgJ3s
https://youtu.be/gOR4Wv9dZ10
http://owaspbricks.blogspot.com/2013/02/file-upload-page-1-solved.html
