https://raw.githubusercontent.com/KingMob/cryptopals-crypto-challenges/master/src/app/set2.clj
https://raw.githubusercontent.com/vedranMv/cryptoChallenge/master/set2/ch9.cpp
https://raw.githubusercontent.com/JarLob/MatasanoCryptoChallenge/master/Tests/Set2.cs
https://raw.githubusercontent.com/ysmolsky/cryptopals-matasano-solutions/master/09/main.go
https://raw.githubusercontent.com/ilchen/cryptopals/master/src/main/java/com/cryptopals/Set2.java
https://raw.githubusercontent.com/HirotoShioi/cryptopals-in-js/master/set2/9/run.js
https://raw.githubusercontent.com/lt/php-cryptopals/master/Cryptopals/Set2/Challenge9/Solution9.php
https://raw.githubusercontent.com/jaybosamiya/cryptopals-solutions/master/set2/9/run.py
https://raw.githubusercontent.com/technion/matasano_challenge/master/set2/chal9/chal9.rb
https://raw.githubusercontent.com/Daeinar/cryptopals/master/src/c09.rs
