https://thehackerway.com/2013/04/04/web-hacking-atacando-dojo-vulnerabilidades-sql-injection-en-hackme-casino-parte-xxv/#more-2328
https://www.youtube.com/watch?v=XmRphGAmg9o
https://rmccurdy.com/scripts/sql/tools/hacmecasino_userguide.pdf
http://bishankochher.blogspot.com/2008/08/additional-security-issues-hacme-casino.html
https://infamoussyn.wordpress.com/2013/04/25/mcafee-hacme-casino-v1-0-walkthrough/
https://www.buenastareas.com/ensayos/Hacme-Casino/73004944.html
https://www.youtube.com/watch?v=bV6nQWjOIGE
https://www.youtube.com/watch?v=qr41ffYZZxE
