https://raw.githubusercontent.com/StevenDunn/CodeEval/master/FindTheHighestScore/cpp/fths.cpp
https://raw.githubusercontent.com/adambose1990/CodeEvalJavaSolutions/master/src/com/codeeval/easy/FindtheHighestScore.java
https://raw.githubusercontent.com/StevenDunn/CodeEval/master/FindTheHighestScore/py2/fths.py
