https://raw.githubusercontent.com/changyuheng/codeforces-solutions/master/467a.go
https://raw.githubusercontent.com/yeicol/CodeForces/master/CF467AGeorgeAndAccommodation.java
https://raw.githubusercontent.com/dwiajik/codeforces/master/467A.py
