http://hackinblood.lasermark.co/network/
https://medium.com/secttp/root-me-network-ftp-authentication-c260a4d0f43
https://retflow.wordpress.com/2017/08/23/ftp-authentication/
https://penpester.wordpress.com/2015/06/17/root-me-org-network-challenge-1/
https://github.com/sfpskywood/babyctf/blob/master/doc/1.3_network.md
https://catatansiical.blogspot.com/2015/06/writeup-ftp-authentication-root-me.html
http://exp-blog.com/2019/01/02/pid-2695/
https://www.youtube.com/watch?v=2QA_oDs-BP4
