https://www.youtube.com/watch?v=A6WwI4On1qk
https://www.youtube.com/watch?v=3cT0uE7Y87s
https://www.youtube.com/watch?v=o14Xche_iok
https://www.youtube.com/watch?v=HpTqgsJu8xE
https://www.youtube.com/watch?v=AtfNT0PFzZ4
https://www.youtube.com/watch?v=BYKxdcc5aTY
https://www.youtube.com/watch?v=oO9jJHzysBo
https://www.youtube.com/watch?v=B5rkWcOAfmA
https://www.youtube.com/watch?v=CuKda6biZrs
https://www.youtube.com/watch?v=wJfvIGMru0M
