https://raw.githubusercontent.com/p1o2p3u1/WeChall/master/Training/Math_Pyramid.md
http://winkar.github.io/2015/01/24/wechall.html
http://0xc0de.tistory.com/22
https://pengyang.me/2018/08/19/wechall/#21training-math-pyramid
