https://raw.githubusercontent.com/nayuki/Project-Euler-solutions/master/java/p038.java
https://raw.githubusercontent.com/kdungs/euler/master/038/euler_38.py
https://raw.githubusercontent.com/sile/euler.rs/master/euler_01/src/problem038.rs
