https://raw.githubusercontent.com/Nigelmnz/CoderbyteSolutions/master/25-NumberAddition/25.hs
https://raw.githubusercontent.com/ZLester/Coderbyte-Solutions/master/Easy/25%20-%20Number%20Addition.js
https://raw.githubusercontent.com/designerGenes/CoderbyteInSwift/master/NumberAddition/NumberAddition.playground/Contents.swift
