https://www.youtube.com/watch?v=o5x1yg3JnYI
https://www.youtube.com/watch?v=NuVzukrSfKU
https://www.bilibili.com/video/av18938536/
https://hkh4cks.com/blog/2017/12/30/htb-brainfuck-walkthrough/
http://www.hackingarticles.in/hack-the-box-challenge-brainfuck-walkthrough/
https://www.linkedin.com/pulse/hack-box-challenge-brainfuck-walkthrough-raj-chandel
https://www.peerlyst.com/posts/how-to-hackthebox-jeeves-machine-writeup-spirited-wolf
https://redteamtutorials.com/2018/11/15/hack-the-box-brain_fk/
https://www.youtube.com/watch?v=ffXRwcNjvvA
