https://infamoussyn.com/2014/04/30/overthewire-krypton-level-0-5-writeup/#level1
http://blog.zairo.kr/entry/OverTheWire-%E2%80%93-Krypton-Level-1?category=570167
https://medium.com/secttp/overthewire-krypton-level-1-42505a85ffb1
https://raw.githubusercontent.com/Lorenyx/OverTheWire-Solutions/master/krypton/level_1.md
