https://www.youtube.com/watch?v=JLh3odEOw5I
https://www.youtube.com/watch?v=YTKdpFdAUU0
http://www.gensale.net/hts-basic-level-10/
http://htstutorial.blogspot.com/2009/07/hts-basic-mission-10.html
http://sp4hack.blogspot.com/2012/09/hack-this-site-basic-10.html
https://es.slideshare.net/ciskosv/hackthissite-3402645
https://blog.abhishekg.com/2011/12/basic-10-javascript-really/
https://github.com/attilathedud/HackThisSite/tree/master/Basic
https://www.unknowncheats.me/forum/other-mmorpg-and-strategy/46386-hack-site-solutions.html
