https://raw.githubusercontent.com/zimpha/competitive-programming/master/project-euler/volume01/46.cc
https://raw.githubusercontent.com/wce-codepals/hacktoberfest-projecteuler/master/solutions/problem-46/solution.cpp
https://raw.githubusercontent.com/nayuki/Project-Euler-solutions/master/java/p046.java
https://raw.githubusercontent.com/sile/euler.rs/master/euler_01/src/problem046.rs
