https://raw.githubusercontent.com/rootulp/exercism/master/java/triangle/src/main/java/Triangle.java
https://raw.githubusercontent.com/rootulp/exercism/master/javascript/triangle/triangle.js
https://raw.githubusercontent.com/rootulp/exercism/master/python/triangle/triangle.py
https://raw.githubusercontent.com/rootulp/exercism/master/ruby/exercises/triangle/triangle.rb
