https://wordpress.com/post/nuc13us.wordpress.com/1198
https://raw.githubusercontent.com/saurav3199/CTF-writeups/master/WatevrCTF/README.md
https://shreyansh.tech/post/2019-12-15_watevr-ctf-2019-writeups/#voting-machine-1
