https://cryptocult.wordpress.com/cyber-challenges/enigma-group-solutions/javascript-exploits/
https://github.com/ThaWeatherman/eg_solutions/blob/master/basics/js/2.txt
https://www.youtube.com/watch?v=74b4uv51HMk
