https://blog.ch4n3.me/131
https://blog.zairo.kr/entry/Wargamekr-Challenge-SimpleBoard
https://mandu-mandu.tistory.com/368
https://w01fgang.tistory.com/52
https://hyunmini.tistory.com/113
https://b.fantazm.net/entry/wargamekr-Challenge-14-SimpleBoard
https://jeonyoungsin.tistory.com/33
