https://www.hackeroyale.com/hacking-with-bwapp/
https://www.youtube.com/watch?v=u-96HkBS8mY
https://github.com/skiptomyliu/solutions-bwapp#xss---reflected-get
https://www.youtube.com/watch?v=p4ri7mmvcsE
https://youtu.be/x6AhGnt3fbk?t=14s
http://www.h3399.cn/201707/111479.html
http://security-is-just-an-illusion.blogspot.com/2014/01/bwapp-cross-site-scripting-xss.html
https://www.youtube.com/watch?v=wba9Mqr7vTY
https://ctf-time.com/bwapp-walkthrough-sql-injection-cross-site-scripting/
http://www.sec-art.net/2018/06/bwapp-buggy-web-application-xss.html
http://www.danieledonzelli.com/ethical-hacking/xss-reflected/
https://wh0s.org/2014/04/03/bwapp-2/
https://wh0s.org/tag/bwapp-app-security/
https://youtu.be/GJm7zdwrTxE
https://98587329.github.io/2018/04/19/bwapp-%E5%AD%A6%E4%B9%A0/
https://cloud.tencent.com/developer/article/1078917
https://www.youtube.com/watch?v=80R4XfzD7XQ
https://www.youtube.com/watch?v=G6J_Aty6oTk
https://www.youtube.com/watch?v=GjXtQh4gxPU
https://www.digitalmunition.me/bwapp-xss-reflected-get-post-ajaxjson-ajaxxml/
