https://www.yeahhub.com/list-metasploit-exploits-modules-metasploitable3-vulnerable-machine/
https://www.hackingarticles.in/hack-metasploitable-3-using-mysql-service-exploitation/
http://www.silcom.com.pe/papers/Paper_Metasploitable3_Practice_labs.pdf
https://ultimatepeter.com/metasploitable-3-meterpreter-port-forwarding/
https://hackingandsecurity.blogspot.com/2017/09/metasploitable-3-walkthrough-getting.html
https://onehostcloud.hosting/support/knowledgebase/metasploitable-3-meterpreter-port-forwarding/
