https://ryan-villarreal.com/2018/07/07/juice-shop-walkthrough-2-star/
https://bkimminich.gitbooks.io/pwning-owasp-juice-shop/content/appendix/solutions.html#log-in-with-the-administrators-user-credentials-without-previously-changing-them-or-applying-sql-injection
https://incognitjoe.github.io/hacking-the-juice-shop.html
https://n0j.github.io/2018/08/01/owasp-juice-shop-v7.3.0-level-2.html
https://raw.githubusercontent.com/bsqrl/juice-shop-walkthrough/master/README.md
https://raw.githubusercontent.com/apox64/OWASP-Juice-Shop-Write-Up/master/juice-shop-writeup.md
https://bkimminich.gitbooks.io/pwning-owasp-juice-shop/content/part2/broken-authentication.html
