https://raw.githubusercontent.com/Gamer1092/Coderbyte-Medium/Medium/Counting%20Minutes.cpp
https://raw.githubusercontent.com/ZLester/Coderbyte-Solutions/master/Medium/15%20-%20Counting%20Minutes.js
https://raw.githubusercontent.com/bolducp/coderbyte/master/medium/15_counting_minutes.py
https://raw.githubusercontent.com/designerGenes/CoderbyteInSwift/master/CountingMinutes/CountingMinutes.playground/Contents.swift
