https://raw.githubusercontent.com/StevenDunn/CodeEval/master/Panacea/c/pan.c
https://raw.githubusercontent.com/StevenDunn/CodeEval/master/Panacea/cpp/pan.cpp
https://raw.githubusercontent.com/mneudert/codeeval/master/easy/panacea/php.php
https://raw.githubusercontent.com/StevenDunn/CodeEval/master/Panacea/py2/pan.py
