https://raw.githubusercontent.com/rootulp/exercism/master/java/difference-of-squares/src/main/java/DifferenceOfSquaresCalculator.java
https://raw.githubusercontent.com/rootulp/exercism/master/python/difference-of-squares/difference_of_squares.py
https://raw.githubusercontent.com/rootulp/exercism/master/ruby/exercises/difference-of-squares/squares.rb
