https://raw.githubusercontent.com/Gamer1092/Coderbyte/Easy/Division%20Stringified.cpp
https://raw.githubusercontent.com/Nigelmnz/CoderbyteSolutions/master/20-DivisionStringified/20.hs
https://raw.githubusercontent.com/TheAaronCovington/Java-Coderbyte-Solutions/master/20DivisionStringified.java
https://raw.githubusercontent.com/ZLester/Coderbyte-Solutions/master/Easy/20%20-%20Division%20Stringified.js
https://raw.githubusercontent.com/brbcoding/Coderbyte/master/Easy/DivisionStringified.php
https://raw.githubusercontent.com/designerGenes/CoderbyteInSwift/master/DivisionStringified/DivisionStringified.playground/Contents.swift
