https://raw.githubusercontent.com/zimpha/competitive-programming/master/project-euler/volume01/45.cc
https://raw.githubusercontent.com/nayuki/Project-Euler-solutions/master/java/p045.java
https://raw.githubusercontent.com/zsiciarz/euler.rs/master/src/solutions/problem45.rs
