https://raw.githubusercontent.com/pastelito02/Challenges-sol/master/Programming/Codeabbey/039/rodnixzend.cc
https://raw.githubusercontent.com/pastelito02/Challenges-sol/master/Programming/Codeabbey/039/vodmin.go
https://raw.githubusercontent.com/pastelito02/Challenges-sol/master/Programming/Codeabbey/039/ecadena.hs
https://raw.githubusercontent.com/igor-kutepov/codeabbey/master/src/main/java/com/kutepov/samples/codeabbey/SharePriceVolatility.java
https://raw.githubusercontent.com/pastelito02/Challenges-sol/master/Programming/Codeabbey/039/Phocisticks.js
https://raw.githubusercontent.com/pastelito02/Challenges-sol/master/Programming/Codeabbey/039/Seneca%20Drennan.lisp
https://raw.githubusercontent.com/pastelito02/Challenges-sol/master/Programming/Codeabbey/039/atercattus.lua
https://raw.githubusercontent.com/pastelito02/Challenges-sol/master/Programming/Codeabbey/039/stefan.schmiedl.ml
https://raw.githubusercontent.com/pastelito02/Challenges-sol/master/Programming/Codeabbey/039/Dant12345.php
https://raw.githubusercontent.com/AndyCYao/codeabbey/master/CA_prob_39_Share_Price_Volatility.py
https://raw.githubusercontent.com/pastelito02/Challenges-sol/master/Programming/Codeabbey/039/chenxiaowei.rb
https://raw.githubusercontent.com/mmcdon20/code_abbey/master/src/main/scala/Abbey039.scala
https://raw.githubusercontent.com/pastelito02/Challenges-sol/master/Programming/Codeabbey/039/kennjensen.vb
https://raw.githubusercontent.com/JesseClarkND/codeabbey_in_C-NET/master/Share%20Price%20Volatility
