https://raw.githubusercontent.com/pastelito02/Challenges-sol/master/Programming/Codeabbey/067/gunsmoke.cc
https://raw.githubusercontent.com/spokenlore/CodeAbbey/master/Beginner/23.%20fibSequence/fibSequence.cpp
https://raw.githubusercontent.com/Tempurturtul/CodeAbbey/master/C%23/FibonacciSequence.cs
https://raw.githubusercontent.com/pastelito02/Challenges-sol/master/Programming/Codeabbey/067/Ratzenfutz.d
https://raw.githubusercontent.com/danielmmetz/codeabbey/master/id67.hs
https://raw.githubusercontent.com/emafazillah/codeabbey/master/src/problem061To070/FibonacciSequence.java
https://raw.githubusercontent.com/pastelito02/Challenges-sol/master/Programming/Codeabbey/067/kittyaurel.jl
https://raw.githubusercontent.com/pastelito02/Challenges-sol/master/Programming/Codeabbey/067/Rodionische.js
https://raw.githubusercontent.com/chriswood/codeabbey/master/caid67.lisp
https://raw.githubusercontent.com/pastelito02/Challenges-sol/master/Programming/Codeabbey/067/tinbtinb.lua
https://raw.githubusercontent.com/pastelito02/Challenges-sol/master/Programming/Codeabbey/067/stefan.schmiedl.ml
https://raw.githubusercontent.com/pastelito02/Challenges-sol/master/Programming/Codeabbey/067/CodyMaker.php
https://raw.githubusercontent.com/pastelito02/Challenges-sol/master/Programming/Codeabbey/067/pearl_barley.pl
https://raw.githubusercontent.com/rajangyawali/codeabbeyPrograms/master/fibon.py
https://raw.githubusercontent.com/John-Russell/CodeAbbey/master/Fibonacci%20Sequence.rb
https://gitlab.com/CodeArtisan/codeabbey/raw/master/problem_67/solution.rkt
https://raw.githubusercontent.com/pastelito02/Challenges-sol/master/Programming/Codeabbey/067/subarenev.rs
https://raw.githubusercontent.com/mmcdon20/code_abbey/master/src/main/scala/Abbey067.scala
https://raw.githubusercontent.com/pastelito02/Challenges-sol/master/Programming/Codeabbey/067/hamza772000.vb
