https://raw.githubusercontent.com/MaskRay/HackerRank/master/kruskalmstrsub.cc
https://raw.githubusercontent.com/BlakeBrown/HackerRank-Solutions/master/Algorithms/Graph%20Theory/Kruskal's%20MST%20-%20Really%20Special%20Subtree.cpp
https://raw.githubusercontent.com/HamidTheGeek/HackerRankSolutions/master/Solutions/Kruskal(MST)ReallySpecialSubtree.cs
