https://syrion89.wordpress.com/2016/12/20/lamp-security-ctf5-writeup/
https://chousensha.github.io/blog/2016/05/05/pentest-lab-lampsecurity-ctf5/
https://highon.coffee/blog/lamp-security-ctf5-walkthrough/
https://www.it-connect.fr/lamp-security-5-solution-et-explications/
https://download.vulnhub.com/lampsecurity/lampsec_ctf5.pdf
http://itsmyxprience.blogspot.com/2015/11/ctf-5-lamp-walkthrough.html
https://www.youtube.com/watch?v=NiGXPbrKOWY
https://www.youtube.com/watch?v=aca1t1QAqTI
http://devloop.users.sourceforge.net/index.php?article99/solution-du-lampsecurity-ctf-5
http://syrion.me/blog/lamp-security-ctf5-writeup/
https://youtu.be/gpvDkc9Mirw
https://bebopsecurity.com/posts/lampsecurity-ctf5
https://sourceforge.net/projects/lampsecurity/files/CaptureTheFlag/CTF5/
https://www.hackingarticles.in/hack-the-lampsecurity-ctf-5-ctf-challenge/
https://www.thecybersploit.com/2019/04/lampsecurity-ctf5-walk-through.html
https://v-s.mobi/ctf-lamp-security-ctf5-06:38
https://www.youtube.com/watch?v=MbtDvKwSElw
