http://www.google-gruyere.appspot.com/part2#2__stored_xss
http://m4l1ce.me/writeups/2017/03/28/google-gruyere.html
https://samsclass.info/120/proj/p2x-Gruyere.html
https://www.airpair.com/security/posts/a-gentle-guide-to-crosssite-scripting-xss
https://github.com/water1212/google_gruyere_challenge/blob/master/xss/stored_xss.md

