https://raw.githubusercontent.com/igor-kutepov/codeabbey/master/src/main/java/com/kutepov/samples/codeabbey/PathsInGrid.java
https://raw.githubusercontent.com/mmcdon20/code_abbey/master/src/main/scala/Abbey040.scala
https://raw.githubusercontent.com/JesseClarkND/codeabbey_in_C-NET/master/Paths%20in%20the%20Grid
