https://www.youtube.com/watch?v=wQagEdrkVqQ
https://klarsen.net/infosec/owasp-webgoat-sql-advanced-lesson/
https://blog.csdn.net/qq_35075164/article/details/81047079
https://www.youtube.com/watch?v=G9l_rxYGkqM&t=27s
https://www.youtube.com/watch?v=OF1GQRhcB4k
https://www.youtube.com/watch?v=RtAiHkorgMI
https://www.youtube.com/watch?v=gc23XtVEox4
https://www.youtube.com/watch?v=v2RLcaf0Zq8
https://www.youtube.com/watch?v=yelHi8TZMe4
https://www.youtube.com/watch?v=a81mxENJikQ
https://www.youtube.com/watch?v=r7WG1xiFwj4&t=10s
https://www.youtube.com/watch?v=veZzeR6Q7Bw
https://www.youtube.com/watch?v=mHaNyGwjyus
https://www.youtube.com/watch?v=1Qs195_8hNw
https://www.youtube.com/watch?v=7PrUX2587A0
https://www.youtube.com/watch?v=Rqt_BgG5YyI
https://www.youtube.com/watch?v=776mlzIKRAo
https://www.youtube.com/watch?v=Dh9Pa0kDfsc
https://www.youtube.com/watch?v=Lwq_Qix8D_A
https://www.youtube.com/watch?v=L8CUDNjjlBY
https://www.youtube.com/watch?v=uVsG7vUTOmA
https://www.youtube.com/watch?v=4LM_EIehbsU&t=2s
https://www.youtube.com/watch?v=JZR8bDRl0t8&t=2s
https://gist.github.com/tylernchls/97f8e2e907c84cfdc908c6f0fced1ddc
https://www.youtube.com/watch?v=Yr0TIF5YoNM
https://sithlab.tistory.com/650
https://dlsdn73.tistory.com/607
https://gist.github.com/tylernchls/97f8e2e907c84cfdc908c6f0fced1ddc#sql-injection-advanced
https://github.com/WebGoat/WebGoat/wiki/Main-Exploits#sql-injection-advanced-lesson-3-exercise
https://github.com/WebGoat/WebGoat/wiki/Main-Exploits#sql-injection-advanced-lesson-5-exercise
http://www.xianxianlabs.com/2018/06/03/webgoat1/#SQL_Injectionadvanced
