https://www.youtube.com/watch?v=4LM_EIehbsU
http://itsecgames.blogspot.com/2013/01/bwapp-sql-injection.html
http://thehackpot.blogspot.com/2014/05/blind-sql-injection-tutorial.html
http://www.h3399.cn/201707/111479.html
http://stupidsecurity.tistory.com/38?category=760177
https://www.cloud.tencent.com/developer/article/1078965
https://teckk2.github.io/web-pentesting/2018/02/07/SQL-Injection-Blind-Boolean-Based.html
https://youtu.be/mxxv1mQunaI
https://youtu.be/dN-sTEcPN4g
http://www.danieledonzelli.com/ethical-hacking/blind-sql-injection-boolean-based/
https://studysecurity-world.tistory.com/104?category=806005
https://net123.tistory.com/465?category=695510
