https://raw.githubusercontent.com/pastelito02/Challenges-sol/master/Programming/Codeabbey/056/sniperproff.cc
https://raw.githubusercontent.com/pastelito02/Challenges-sol/master/Programming/Codeabbey/056/Matthew-Ord.cs
https://raw.githubusercontent.com/pastelito02/Challenges-sol/master/Programming/Codeabbey/056/istudent.go
https://raw.githubusercontent.com/pastelito02/Challenges-sol/master/Programming/Codeabbey/056/Hennes.hs
https://raw.githubusercontent.com/igor-kutepov/codeabbey/master/src/main/java/com/kutepov/samples/codeabbey/LifeIsSimple.java
https://raw.githubusercontent.com/pastelito02/Challenges-sol/master/Programming/Codeabbey/056/VoinSveta.js
https://raw.githubusercontent.com/pastelito02/Challenges-sol/master/Programming/Codeabbey/056/xatoposx.lisp
https://raw.githubusercontent.com/pastelito02/Challenges-sol/master/Programming/Codeabbey/056/ayy_luamao.lua
https://raw.githubusercontent.com/pastelito02/Challenges-sol/master/Programming/Codeabbey/056/Dant12345.php
https://raw.githubusercontent.com/Xzya/CodeAbbeySolutions/master/LifeIsSimple.py
https://raw.githubusercontent.com/pastelito02/Challenges-sol/master/Programming/Codeabbey/056/mooninvader.rb
https://raw.githubusercontent.com/pastelito02/Challenges-sol/master/Programming/Codeabbey/056/Guy-Gervais.vb
https://raw.githubusercontent.com/JesseClarkND/codeabbey_in_C-NET/master/Life%20is%20Simple
