https://raw.githubusercontent.com/Gamer1092/Coderbyte-Medium/Medium/Caesar%20Cipher.cpp
https://raw.githubusercontent.com/ZLester/Coderbyte-Solutions/master/Medium/11%20-%20Caesar%20Cipher.js
https://raw.githubusercontent.com/bolducp/coderbyte/master/medium/11_caesar_cipher.py
https://raw.githubusercontent.com/designerGenes/CoderbyteInSwift/master/CaesarCipher/CaesarCipher.playground/Contents.swift
