29
838489439 420314657
1285265650 1037166450
177115469 1619196322
2077524580 378744988
1847498100 1981702281
1891704424 1155789794
906191948 455454378
59229773 295342220
1791759123 1489092977
411420267 1981787217
1741547089 1421559469
1700640367 1888368477
1609844526 728377333
1174589534 910514629
664796025 1496758331
1553419073 118536651
655407076 1814120884
1401083395 1289913058
1160384994 1347535612
559783772 1114342131
1544743310 1466881645
1046765235 1695035782
809101469 1571316681
1079546406 1062720384
394909918 505923360
1595489767 1960889047
633796513 515393294
1347385934 1559743623
1286236388 272377763
