https://raw.githubusercontent.com/james9909/PracticeCTF/master/HackThis/Captcha-1/Solution.py
https://github.com/james9909/PracticeCTF/blob/master/HackThis/Captcha-1/Solution.py
http://hackinblood.lasermark.co/captcha/
https://www.youtube.com/watch?v=C4LEZbKfo9k
https://raw.githubusercontent.com/luceatnobis/challenges/master/hackthis.co.uk/captcha/1/1.py
http://devloop.users.sourceforge.net/index.php?article187/how-i-solved-hackthis-captcha-challenges
