https://www.elasticice.net/?p=16
https://resources.infosecinstitute.com/donkeydocker1-ctf-walkthrough/
https://raw.githubusercontent.com/Hamza-Megahed/CTFs/master/donkeydocker-v1/README
https://reedphish.wordpress.com/2017/05/01/donkeydocker-1-walkthrough/
https://www.n00py.io/2017/08/vulnhub-walkthrough-donkey-docker/
