https://raw.githubusercontent.com/linuxp3nguin/smashing-the-stack-2013/master/IO/004
https://www.greyhat.dk/io-smashthestack-level-04/
https://www.youtube.com/watch?v=LyG4XlJxaWU
https://infamoussyn.wordpress.com/2013/09/05/smashthestack-io-walkthrough-part-a-level-1-5/
