https://raw.githubusercontent.com/nayuki/Project-Euler-solutions/master/java/p081.java
https://raw.githubusercontent.com/nayuki/Project-Euler-solutions/master/python/p081.py
https://raw.githubusercontent.com/sile/euler.rs/master/euler_03/src/problem081.rs
