14
8853 6230 6826 4525 2806 3175
2895 1858 2400 1089 5187 7069
300 6448 5450 6828 9137 7862
8328 7068 2297 6291 2095 8973
2408 8391 5097 4795 9108 2639
7940 7961 8868 4766 2485 1674
7941 5379 3532 340 6468 8718
7409 6768 5165 2858 3595 4301
720 1923 1369 3017 8213 3464
1989 620 1854 7085 5415 962
9723 3355 8922 8591 8120 1406
264 6060 6785 3796 6400 3253
2513 3808 20 7677 6666 3614
1978 7385 5536 3347 401 3749
