https://www.youtube.com/watch?v=ju_n5S1Xa38
https://www.youtube.com/watch?v=mUtKqTvIsgA
https://www.youtube.com/watch?v=x6AhGnt3fbk
https://www.youtube.com/watch?v=Ak8YXeqS2fw
https://www.youtube.com/watch?v=n0BOWmM0gcI&t=4s
https://www.youtube.com/watch?v=cKzEcB-lRGE
https://www.youtube.com/watch?v=D9fI1r7uhRo
https://www.youtube.com/watch?v=u-96HkBS8mY
https://www.youtube.com/watch?v=Em958SRT9y8
https://www.youtube.com/watch?v=LQ8TCqsqxwI
https://securityshards.wordpress.com/2016/05/08/bwapp-sql-injection-ajaxjsonjquery-challenge/
https://wooly6bear.files.wordpress.com/2016/01/bwapp-tutorial.pdf
http://www.sec-art.net/2018/06/bwapp-buggy-web-application-xss.html
https://www.youtube.com/watch?v=3aLVbGAfti8
https://www.youtube.com/watch?v=2nsJzLlAPmY&list=PLb5P0I7Dt6Rb4x-_7hNGc5qA5xUXbUUGD
