https://raw.githubusercontent.com/p1o2p3u1/WeChall/master/Training/PrimeFactory.md
http://winkar.github.io/2015/01/24/wechall.html
https://raw.githubusercontent.com/BirkhoffLee/wechall/master/exploit/Prime%20Factory/prime.py
https://raw.githubusercontent.com/arma26/challenge/master/wechall.py
https://raw.githubusercontent.com/james9909/PracticeCTF/master/WeChall/Prime-Factory/Solution.py
https://github.com/CyrilP/wechall/blob/master/Prime.java
http://dipanjan.in/ctf/wechall-prime-factory/
https://m.blog.naver.com/PostView.nhn?blogId=dual5651&logNo=60131481588&proxyReferer=https%3A%2F%2Fwww.google.com.co%2F
http://revers3r.tistory.com/258
http://blog.csdn.net/xuqi7/article/details/49789045
http://code1018.tistory.com/86
http://qkqhxla1.tistory.com/216
http://z0mbi2.tistory.com/52
http://www.tk4479.net/github_38988821/article/details/72845492
http://gyeongje.tistory.com/248
https://raw.githubusercontent.com/CyrilP/wechall/master/Prime.java
http://byd.dropsec.xyz/2016/03/04/WeChall_writeup/#Prime-Factory
https://medium.com/bugbountywriteup/wechall-wargame-solutions-76f60ea39b16
