https://raw.githubusercontent.com/wce-codepals/hacktoberfest-projecteuler/master/solutions/problem-17/solution.c
https://raw.githubusercontent.com/nayuki/Project-Euler-solutions/master/java/p017.java
https://raw.githubusercontent.com/kdungs/euler/master/017/euler_17.py
https://raw.githubusercontent.com/zsiciarz/euler.rs/master/src/solutions/problem17.rs
https://raw.githubusercontent.com/nayuki/Project-Euler-solutions/master/mathematica/p017.mathematica
