https://www.youtube.com/watch?v=dQ-_TO1zuvA
https://www.youtube.com/watch?v=YYzWvXG7mjQ
https://www.youtube.com/watch?v=L_qqJvabctY
https://www.youtube.com/watch?v=BVI1-ikJ-xw
https://www.youtube.com/watch?v=qLIkGJrMY9k
https://www.youtube.com/watch?v=HDkukd4h-ro
https://www.youtube.com/watch?v=8U88YvLMYQo
https://www.youtube.com/watch?v=bDL99vwwyR4
https://www.youtube.com/watch?v=r4liwEQm14o
https://www.youtube.com/watch?v=1Gf8C70M4YQ
