https://resources.infosecinstitute.com/vulnhub-machines-walkthrough-series-vulnix/#gref
https://resources.infosecinstitute.com/vulnhub-machines-walkthrough-series-vulnix/?utm_source=feedburner&utm_medium=feed&utm_campaign=Feed%3A+infosecResources+%28InfoSec+Resources%29
https://www.sevenlayers.com/index.php/107-vulnhub-vulnix-walkthrough
https://medium.com/@Kan1shka9/hacklab-vulnix-walkthrough-b2b71534c0eb
https://www.abatchy.com/2016/10/walkthrough-vulnix-vulnhub-vm
http://www.anonhack.in/2018/06/vulnix-vulnerable-vm-ctf-walkthrough/
https://n33dle-security.blogspot.com/2018/06/time-for-vulnhub-machine.html
https://rastating.github.io/vulnix-ctf-walkthrough/
https://iamroot.home.blog/2019/08/11/vulnix-walkthrough-2/
http://oldsmokingjoe.blogspot.com/2016/01/walkthrough-vulnix.html
https://ohexfortyone.com/2018/03/vulnhub-hacklab-vulnix-boot2root-vm.html
