https://raw.githubusercontent.com/Gamer1092/Coderbyte/Easy/Mean%20Mode.cpp
https://raw.githubusercontent.com/Nigelmnz/CoderbyteSolutions/master/22-MeanMode/22.hs
https://raw.githubusercontent.com/ZLester/Coderbyte-Solutions/master/Easy/22%20-%20Mean%20Mode.js
https://raw.githubusercontent.com/designerGenes/CoderbyteInSwift/master/MeanMode/MeanMode.playground/Contents.swift
