https://www.hackingarticles.in/hack-the-toppo1-vm-ctf-challenges/
https://resources.infosecinstitute.com/toppo-1-capture-the-flag-walkthrough/
https://latesthackingnews.com/2018/08/24/toppo-vulnhub-ctf-challenge-walkthrough/
https://www.sevenlayers.com/index.php/89-vulnhub-toppo-1-walkthrough
https://www.youtube.com/watch?v=cI65Q61qHWU
https://www.youtube.com/watch?v=fb4A4uyPPjQ
https://medium.com/bugbountywriteup/vulnhub-toppo-writeup-1ac541bf185a
