https://cryptocult.wordpress.com/cyber-challenges/enigma-group-solutions/javascript-exploits/
https://raw.githubusercontent.com/luceatnobis/challenges/master/enigmagroup.org/js/10/solution
https://raw.githubusercontent.com/djcomidi/enigmagroup/master/basic/js/10/solution.py
https://github.com/luceatnobis/challenges/tree/master/enigmagroup.org/js/10
