http://camelinc.info/blog/2017/03/Vulnhub---Breach-2.1-boot2root-CTF-walkthrough/
http://www.hackingarticles.in/hack-breach-2-1-vm-ctf-challenge/
https://reedphish.wordpress.com/2016/10/16/breach-2-1-walkthrough/
https://reversebrain.wordpress.com/2016/08/18/vulnhub-breach-2/
http://www.stevencampbell.info/2016/09/vulnhub-breach-21-walkthrough.html
https://research.g0blin.co.uk/breach-2.1-vulnhub-writeup/
https://m4ng0n3l.github.io/articles/2016-09/vulnhub-breach-2-1
https://shad0whack.blogspot.com/2016/09/completando-ctf-breach21.html
http://blog.safetechinnovations.com/challenges/breach-2-1/
https://n13mant.wordpress.com/2016/08/31/breach-2-1/
https://geodasecurity.blogspot.com/2016/08/breach-21-walkthrough.html
http://0xz00n.info/2016/08/breach-2-1/
https://t0w3ntum.com/2016/08/22/breach-2-vulnhub/
https://www.arashparsa.com/2016/08/20/breach-2-vulnhub-walkthrough
https://www.chrismaddalena.com/2016/08/vulnhub-breach-2-0-walkthrough/
http://www.redteamr.com/2016/08/breach-2-walkthrough/
https://rgolebiowski.blogspot.co.uk/2016/08/breach-2-challenege.html
https://drive.google.com/file/d/0B4NG4XHkMyIFMFp0NXViazgxdnc/view
https://www.youtube.com/watch?v=1oihxn3J0sg
https://www.youtube.com/watch?v=Qucz_Uv3QOk
