https://raw.githubusercontent.com/addud/uav-aloa/master/Source/tasks.c
https://raw.githubusercontent.com/suryakiranjuthuka/PLUMDM_auto/master/index.php
https://raw.githubusercontent.com/dhbesson/rocket-landing-demo/master/landing_git_v1_20181004.py
