https://github.com/smholsen/backdoorctf/tree/master/beginners/authorized_persons_only#authorized-persons-only
https://www.youtube.com/watch?v=vWqfOH_7cQY
https://ctffornoobs.wordpress.com/2017/07/21/backdoor-sdslabs-write-up-secret-area/
