https://github.com/bsqrl/juice-shop-walkthrough#9-xss-tier-4-perform-a-persisted-xss-attack-with-scriptalertxss4script-without
https://bkimminich.gitbooks.io/pwning-owasp-juice-shop/content/appendix/solutions.html
https://github.com/apox64/OWASP-Juice-Shop-Write-Up/blob/master/juice-shop-writeup.md#29-xss-tier-4-perform-a-persisted-xss-attack-bypassing-a-server-side-security-mechanism
http://m4l1ce.me/writeups/2017/01/09/juice-shop.html
https://github.com/pastelito02/Challenges-sol/blob/master/JuiceShop/Apox64/solutions.md#29-xss-tier-4-perform-a-persisted-xss-attack-bypassing-a-server-side-security-mechanism
https://github.com/pastelito02/Challenges-sol/blob/master/JuiceShop/Bkmminich/solutions.md
https://incognitjoe.github.io/hacking-the-juice-shop.html
https://github.com/pastelito02/Challenges-sol/blob/master/JuiceShop/Bsqrl/solutions.md
https://bkimminich.gitbooks.io/pwning-owasp-juice-shop/content/part2/xss.html
https://github.com/apox64/OWASP-Juice-Shop-Write-Up/blob/master/juice-shop-writeup.md
https://raw.githubusercontent.com/apox64/OWASP-Juice-Shop-Write-Up/master/juice-shop-writeup.md
