https://github.com/skiptomyliu/solutions-bwapp#php-cgi-remote-code-execution
https://www.youtube.com/watch?v=5vjw9vqKxsU
https://www.youtube.com/watch?v=RUsHcZi2hIU
https://www.youtube.com/watch?v=RO4P33SniYs
https://www.youtube.com/watch?v=fujV_6By_GE
https://www.youtube.com/watch?v=WeEDIg2RALo
https://www.youtube.com/watch?v=0B4PTU3jBfs
https://www.youtube.com/watch?v=B5rkWcOAfmA
https://www.youtube.com/watch?v=O8v-xgNklsQ&t=5s
https://www.youtube.com/watch?v=Wjpb5neL3yM
https://www.youtube.com/watch?v=AuNwk--lfxU
https://www.youtube.com/watch?v=7-5gfNr9ENY
https://net123.tistory.com/548?category=695510

