42
8969144023813056
6772582689506541
7039966460741023
9229347427085795
5862253562508145
65867460675?7942
1381932636151086
2191241901589242
1?89408938530560
2745140437917301
88921048968444?2
91285244093989?9
7178850672618434
1426534455193807
9624072214738056
3880033780673125
6700641624?39729
7839167579118475
7672346679297446
80666140?1400172
6923016468378673
?743029704118800
1?77980079745281
2514?64152995344
41448578623?2177
46?2586940711774
263108?891485589
86676572?6620332
7723834990533522
78694150119797?3
6757997146628465
4688010251546262
2561543738371184
6964895346103501
3673502359946721
6295669219278276
7657149968273973
6687613087169148
5193376452276?17
5233442682055050
12145?1809153041
98713?0278267344
