https://raw.githubusercontent.com/edeng/CodeEval/master/Easy/RightmostChar.java
https://raw.githubusercontent.com/pascal-bourut/codeeval-challenges/master/easy/31%20-%20Rightmost%20Char/31.js
https://raw.githubusercontent.com/pascal-bourut/codeeval-challenges/master/easy/31%20-%20Rightmost%20Char/31.php
https://raw.githubusercontent.com/edeng/CodeEval/master/Easy/RightmostChar.py
