https://raw.githubusercontent.com/yahwes/project-euler/master/R-Files-0001-0100/pe0013.R
https://raw.githubusercontent.com/danielfm/euler-clojure/master/euler/problem_13.clj
https://raw.githubusercontent.com/EaterOA/Euler/master/1-25/euler013.cpp
https://raw.githubusercontent.com/Dukotech/Project-Euler-Solutions/master/dotnet/src/Problem13.cs
https://raw.githubusercontent.com/jmoiron/euler.go/master/013.go
https://raw.githubusercontent.com/nayuki/Project-Euler-solutions/master/java/p013.java
https://raw.githubusercontent.com/johnmyleswhite/projecteuler.jl/master/013.jl
https://raw.githubusercontent.com/lilyball/projecteuler-ocaml/master/prob13.ml
https://raw.githubusercontent.com/fedeisas/project-euler/master/13/problem-13.php
https://raw.githubusercontent.com/jpillora/euler-in-perl/master/013.pl
https://raw.githubusercontent.com/zsiciarz/euler.rs/master/src/solutions/problem13.rs
https://raw.githubusercontent.com/samskivert/euler-scala/master/Euler013.scala
https://raw.githubusercontent.com/nayuki/Project-Euler-solutions/master/mathematica/p013.mathematica
