https://blog.csdn.net/x728999452/article/details/52205510
https://resources.infosecinstitute.com/tutorial-on-sqli-labs/
https://huirongis.me/2016/08/26/sqli-labs-series-lesson11-17/
https://chybeta.github.io/2017/08/23/Sqli-Labs-Less13-14-writeup/
https://www.xmanblog.net/sqli-labs-less-13-lless-14-2/
https://www.kingkk.com/2017/12/sqli-labs%E7%BB%83%E4%B9%A0(less11-22)/
https://www.ambrose.top/2019/05/07/sqli-labs-11-20/#toc-heading-4
https://www.cnblogs.com/lcamry/p/5763064.html
https://www.qingtingip.com/h_321963.html
https://www.writeup.top/480.html
https://skysec.top/2017/07/18/SQLi-LABS(Basic)(Less-1%20~%20Less-22)/#Less-14
https://revoextremer.wixsite.com/revo/single-post/2015/06/26/-Solution-SQLi-Labs-Challenge-58-Double-Query-GET-
https://raw.githubusercontent.com/gr4vit0n/sqli-labs-solution/master/less14.py
https://flora.gitbooks.io/web-application-security/sqli-labs_lesson_13_&_14.html
https://www.cnblogs.com/pangsong/p/12243138.html
https://www.hotbak.net/key/sqlilabsless11less14Xi4or0ujiCSDN%E5%8D%9A%E5%AE%A2.html
https://www.vvzixun.com/index.php/code/4330d699019154c65efbc68f750a335b
https://baynk.blog.csdn.net/article/details/88045603
https://www.0akarma.com/sqli-labs.html
https://specters.top/2019/01/29/sqli-labs%E9%9D%B6%E5%9C%BA%E7%BB%83%E4%B9%A0/
http://www.it165.net/database/html/201605/15655.html
https://www.itread01.com/content/1545490626.html
https://www.fujieace.com/penetration-test/sqlilabs-1-22.html
https://blog.csdn.net/qq_21500173/article/details/51920968#less-14-double-injection-double-quotes-string
