http://zairo.tistory.com/entry/Webhackingkr-Chellange-Level-21
https://github.com/Qwaz/solved-hacking-problem/blob/master/webhacking.kr/21/solver.py
http://blog.naver.com/PostView.nhn?blogId=sbd38&logNo=220252517355
http://realmojo.tistory.com/26
http://hackingboy.tistory.com/34
http://lureout.tistory.com/513
http://rootable.tistory.com/entry/webhackingkr-21%EB%B2%88-%EB%AC%B8%EC%A0%9C
http://leeggoggal.tistory.com/41
http://latifundium.blogspot.com.co/2016/08/webhackingkr-21-blindsql-injection.html
