https://www.youtube.com/watch?v=r0l_54thSYU
https://www.youtube.com/watch?v=_WQe36pZ3mA
https://www.youtube.com/watch?v=w5HHzpblgE0
https://www.youtube.com/watch?v=prFSXGl_xPw
https://www.youtube.com/watch?v=JL6cZf4ZEQ8
https://www.youtube.com/watch?v=1Jxoid7Rol4
https://www.youtube.com/watch?v=e5eAFm-DJak
https://www.youtube.com/watch?v=VjxCq1EQ3Xw
https://www.youtube.com/watch?v=oUVU9yHWzug
https://www.youtube.com/watch?v=83tusHyvJRk
https://www.youtube.com/watch?v=ciXfS894IEQ
https://www.youtube.com/watch?v=7ezGTP99xSw
https://www.youtube.com/watch?v=fCUxQLbFvCY
https://www.youtube.com/watch?v=EjjhD3FkWQA
https://www.youtube.com/watch?v=4QOU_Xh-zbc
https://www.youtube.com/watch?v=QTmYt6DwoCI
https://www.youtube.com/watch?v=3oBLqmVzQfM
https://www.youtube.com/watch?v=Eo6ZD8PCzxY
https://www.youtube.com/watch?v=91DwA5aFxLg
https://www.youtube.com/watch?v=WglJdxqeDrk
https://www.youtube.com/watch?v=VBCfZzRulCQ
https://www.youtube.com/watch?v=xShwyUq-uHk
https://www.youtube.com/watch?v=l4fRu0f-Qd0
https://www.youtube.com/watch?v=2w7byLxGy88
https://www.youtube.com/watch?v=277PYsuon54
https://www.youtube.com/watch?v=iZ2J0jWEK_M
https://www.youtube.com/watch?v=JHIIfxH4KWA
https://www.youtube.com/watch?v=vVY3rqYZzsc
https://www.youtube.com/watch?v=u3YKW9x9Wpg
https://www.youtube.com/watch?v=UoKxVdz3gIE
https://code610.blogspot.com/2019/10/testing-dvna.html
