https://raw.githubusercontent.com/zhengzufu/ctf/master/2019/2019-04-13-plaidctf/README.md
https://raw.githubusercontent.com/Pusty/writeups/master/PlaidCTF2019/README.md
https://raw.githubusercontent.com/Gdasl/CTFs/master/PlaidCTF2019/SpaceSaver.md
https://medium.com/@naveenramesh915/plaidctf-2019-write-ups-53876c9a75eb
