https://github.com/cerc-undip/CTF-Learn-Writeup/tree/master/taking_ls_COMPLETE
https://github.com/rolandhartanto/Capture-The-Flag/blob/master/ctflearn/ctflearn.md#forensics
https://drewadwade.github.io/ctfs/2019/CTFLearnEasy.html
https://www.youtube.com/watch?v=FRZjycQEjvM
https://www.youtube.com/watch?v=CwkcpJsHZfk
https://github.com/Offliners/CTFlearn-writeup/blob/master/FORENSICS/Taking%20LS/README.md
