https://github.com/skiptomyliu/solutions-bwapp#insecure-dor-change-secret
https://www.youtube.com/watch?v=TJXcX3KWWwc
https://youtu.be/ptT5sMLH3Ks
https://youtu.be/jLk-s-IpEX4
https://www.youtube.com/watch?v=0cbSUq_LW3Y
