https://raw.githubusercontent.com/linjiyuan90/OJ_Code/master/hackerrank/BeadOrnaments.cc
https://gist.githubusercontent.com/arikrak/4735694/raw/e5eff1b7ff3317a5e6c9ee3f6b1273649ef8bae4/gistfile1.java
https://raw.githubusercontent.com/mrempala/hackerrank-graph-theory/master/beadOrnaments.py
