https://raw.githubusercontent.com/zimpha/competitive-programming/master/project-euler/volume01/40.cc
https://raw.githubusercontent.com/nayuki/Project-Euler-solutions/master/java/p040.java
https://raw.githubusercontent.com/kdungs/euler/master/040/euler_40.py
https://raw.githubusercontent.com/zsiciarz/euler.rs/master/src/solutions/problem40.rs
