https://flora.gitbooks.io/web-application-security/sqli-labs_lesson_15_&_16.html
https://chybeta.github.io/2017/08/23/Sqli-Labs-Less15-16-writeup/
https://github.com/WangYihang/sqli-labs/blob/master/writeup/Lesson-16.md
http://dummy2dummies.blogspot.com/2012/09/sqli-labs-series-part-16-sql-injection.html
https://skysec.top/2017/07/18/SQLi-LABS(Basic)(Less-1%20~%20Less-22)/
https://huirongis.me/2016/08/26/sqli-labs-series-lesson11-17/
https://blog.zeddyu.info/2019/03/03/Sqli-lab%E9%80%9F%E5%88%B7%E8%AE%B0%E5%BD%95(1-53)/#Less-16
http://shaobaobaoer.cn/archives/560/sqli-lib-%E5%AE%9E%E6%88%98%E6%97%A5%E5%BF%97-%E4%BA%8C
https://www.v0n.top/2019/08/15/sqli-labs%E5%81%9A%E9%A2%98%E8%AE%B0%E5%BD%95(%E4%B8%80)/
https://flag0.com/2019/10/05/sqli-lib/
https://blog.csdn.net/Fly_hps/article/details/80279794
https://blog.csdn.net/Fly_hps/article/details/80279757
https://www.cnblogs.com/lcamry/p/5763050.html
https://www.ioqq.com/668141/sqli-labs-less-16.html
https://www.jianshu.com/p/60309c96196f
https://www.shuzhiduo.com/A/VGzlprqOzb/
https://www.itdaan.com/tw/9cf8fd880172889c85fd5ffc5f83de03
https://www.sketchplane.top/2019/10/08/SQLI%E5%AD%A6%E4%B9%A0%E8%AE%B0%E5%BD%95/
https://damit5.com/2018/05/11/%E9%80%9A%E8%BF%87-sqli-labs-%E5%AD%A6%E4%B9%A0SQL%E6%B3%A8%E5%85%A5/
http://www.luyixian.cn/news_show_25233.aspx
