https://raw.githubusercontent.com/derekhh/HackerRank/master/coin-on-the-table.cpp
https://gist.githubusercontent.com/PiouseLeo/6384539f1b5619d4843c/raw/8113972752ab18454c5c0b54bcd7a7f601faf2c3/CoinOnTheTable.java
https://raw.githubusercontent.com/jianminchen/Hackerrank/master/Coin%20on%20the%20Table.py
https://raw.githubusercontent.com/animesh0353/Hackerrank/master/The%20Coin%20Change%20Problem
