https://chousensha.github.io/blog/2014/07/03/smashthestack-io-level-2/
http://raidersec.blogspot.com/2012/10/smash-stack-io-level-2-writeup.html
https://raw.githubusercontent.com/linuxp3nguin/smashing-the-stack-2013/master/IO/002
https://www.greyhat.dk/io-smashthestack-level-02/
https://www.youtube.com/watch?v=BMBeEkPTVms
https://www.youtube.com/watch?v=ILccVhGwH4w
https://www.youtube.com/watch?v=T_hQJFUrclQ
