https://www.youtube.com/watch?v=GI8R3-rVUjE
https://www.youtube.com/watch?v=rtFH188ZJX8
https://www.youtube.com/watch?v=SHmQ3sQFeLE
https://www.youtube.com/watch?v=eymxlggL9EQ
https://www.youtube.com/watch?v=gkMl1suyj3M
https://www.youtube.com/watch?v=UaYWqZ5FBGw
https://www.youtube.com/watch?v=L5l9lSnNMxg
https://www.youtube.com/watch?v=inCS6PQYu34
https://www.youtube.com/watch?v=QiLyPRO_fvo
https://www.youtube.com/watch?v=kHaS_pc9sG8
https://uceka.com/2017/05/29/deloitte-de-hacking-challenge-prequals-ctf/
https://raw.githubusercontent.com/rapid7/hackazon/master/VULNERABILITIES.md

