https://raw.githubusercontent.com/ehoxha91/TwoRobotsOnlineServing/master/TwoRobots_001.c
https://raw.githubusercontent.com/saubhik/hackerrank/master/two-robots.cpp
https://raw.githubusercontent.com/JianLoong/HackerRank/b2cea71fbf206436ba833cffb0f669adc0461ad9/src/weekofcode19/TwoRobot.java
https://raw.githubusercontent.com/donkirkby/team_bots/master/robot1.py
