https://raw.githubusercontent.com/HamidTheGeek/HackerRankSolutions/master/Solutions/RepeatedString.cs
https://raw.githubusercontent.com/leeychee/hackerrank/master/practice/algorithms/implementation/repeated_string/main.go
https://raw.githubusercontent.com/charles-wangkai/hackerrank/master/repeated-string/Solution.java
https://raw.githubusercontent.com/gabrielgiordan/hackerrank/master/algorithms/implementation/repeated-string.js
https://raw.githubusercontent.com/raghav97/Hackerrank-Solutions/master/repeated_string.rb
https://raw.githubusercontent.com/witekbobrowski/HackerRank/master/Algorithms/Implementation/repeated-string.swift
