https://raw.githubusercontent.com/sloganhmc/CodeEval/master/da_vinci_solve.cpp
https://raw.githubusercontent.com/Brianjr0428/CodeEval/master/Hard/Da%20Vyncy/DaVyncy.java
https://raw.githubusercontent.com/mpillar/codeeval/master/2-hard/da-vyncy/main.py
