https://www.youtube.com/watch?v=JrosYiCxDyM
https://hackso.me/lampiao-1-walkthrough/
https://www.peerlyst.com/posts/how-to-break-into-lampiao-1-machine-writeup-spirited-wolf
https://www.youtube.com/watch?v=xtAYwQZhBEo
https://www.youtube.com/watch?v=XgTrslzEy1Q
https://github.com/gameFace22/vulnhub-walkthrough/blob/master/lampiao.md
https://www.rootnetsec.com/vulnhub-lampiao/
https://gamerjack.com/18/
https://medium.com/egghunter/lampi%C3%A3o-1-vulnhub-walkthrough-c334aaa68cb9
https://resources.infosecinstitute.com/lampiao-1-ctf-walkthrough/#gref
https://00-wolf.bdinsoft.com/2018/11/vulnhub-vm-write-up-lampiao-1-ctf-challenge/
https://www.youtube.com/watch?v=WNMk1EJucVU
https://www.youtube.com/watch?v=tWLRAsd8lPM
https://www.youtube.com/watch?v=pgfYKUXGhOY
https://www.youtube.com/watch?v=c8LX-0j_udk
https://www.youtube.com/watch?v=dkA74oJaF-Q
https://www.youtube.com/watch?v=7t4OOK0I2hM
