https://raw.githubusercontent.com/pastelito02/Challenges-sol/master/Programming/Codeabbey/075/caffene.cc
https://raw.githubusercontent.com/sridatta/yacht/master/project.clj
https://raw.githubusercontent.com/girving/poker/master/exact.cpp
https://raw.githubusercontent.com/pastelito02/Challenges-sol/master/Programming/Codeabbey/075/Ratzenfutz.d
https://raw.githubusercontent.com/pastelito02/Challenges-sol/master/Programming/Codeabbey/075/motkov.kirill.go
https://raw.githubusercontent.com/pastelito02/Challenges-sol/master/Programming/Codeabbey/075/h42.hs
https://raw.githubusercontent.com/BartMassey/java-yacht/master/Yacht.java
https://raw.githubusercontent.com/tmrdr/YACHT/master/script.js
https://raw.githubusercontent.com/pastelito02/Challenges-sol/master/Programming/Codeabbey/075/gerhardt_funk.lisp
https://raw.githubusercontent.com/pastelito02/Challenges-sol/master/Programming/Codeabbey/075/atercattus.lua
https://raw.githubusercontent.com/pastelito02/Challenges-sol/master/Programming/Codeabbey/075/Angie%20Pacheco.ml
https://raw.githubusercontent.com/pastelito02/Challenges-sol/master/Programming/Codeabbey/075/Dant12345.php
https://raw.githubusercontent.com/pepinu/practise/master/CA/Yacht%20or%20Dice%20Poker.py
https://raw.githubusercontent.com/pastelito02/Challenges-sol/master/Programming/Codeabbey/075/crabicode.rb
https://raw.githubusercontent.com/shkr/puzzles/master/src/main/scala/org/shkr/puzzles/combinatorial/Yacht.scala
https://raw.githubusercontent.com/pastelito02/Challenges-sol/master/Programming/Codeabbey/075/hamza772000.vb
https://raw.githubusercontent.com/JesseClarkND/codeabbey_in_C-NET/master/Yacht%20or%20Dice%20Poker
