https://raw.githubusercontent.com/mpillar/codeeval/master/0-easy/multiply-lists/main.cpp
https://raw.githubusercontent.com/pascal-bourut/codeeval-challenges/master/easy/113%20-%20Multiply%20lists/113.js
https://raw.githubusercontent.com/pascal-bourut/codeeval-challenges/master/easy/113%20-%20Multiply%20lists/113.php
https://raw.githubusercontent.com/jtibbertsma/code-eval/master/multiply-lists/mult.rb
