http://location-href.com/xvwa-walkthrough/
https://youtu.be/thlNxFCj4ms
https://youtu.be/Kk9b8VEgHS8
https://www.youtube.com/watch?v=M3BQwG3D9oo
https://docplayer.net/62705840-Xvwa-technical-run-information-security-inc.html
https://securitycode.tistory.com/73
https://isec.ne.jp/wp-content/uploads/2017/07/11XVWA-Technical-Run.pdf
https://raw.githubusercontent.com/rudSarkar/xvwa-solution/master/os-command-injection-xvwa.md
