https://raw.githubusercontent.com/milapsheth/Crypto-Challenges/master/src/set4/hmac_timing_attack.clj
https://raw.githubusercontent.com/ysmolsky/cryptopals-matasano-solutions/master/31/main.go
https://raw.githubusercontent.com/ilchen/cryptopals/master/src/main/java/com/cryptopals/Set4.java
https://raw.githubusercontent.com/lt/php-cryptopals/master/Cryptopals/Set4/Challenge31/Solution31.php
https://raw.githubusercontent.com/akalin/cryptopals-python3/master/challenge31.py
https://raw.githubusercontent.com/technion/matasano_challenge/master/set4/chal31/chal31.rb
https://raw.githubusercontent.com/Daeinar/cryptopals/master/src/c31.rs
