https://ironhackers.es/en/writeups/hackthebox/writeup-fighter-hackthebox/
https://forum.hackthebox.eu/discussion/1149/fighter-write-up-by-0xea31#latest
https://www.youtube.com/watch?v=CW4mI5BkP9E&t=2118s
https://www.youtube.com/watch?v=h1dnYkmj-yA
https://www.youtube.com/watch?v=ws_XuoQ3v-k
https://veteransec.com/2018/10/06/hack-the-box-fighter-walkthrough/
https://github.com/Hackplayers/hackthebox-writeups/raw/master/machines/Fighter/absolutezero-fighter.pdf
http://devloop.users.sourceforge.net/index.php?article172/solution-du-ctf-fighter-de-hackthebox
https://video.hacking.reviews/2018/10/hackthebox-fighter.html
https://blog.lowmillercg.com/hack-the-box-fighter-walkthrough-veteransec/
https://www.hackingarticles.in/hack-the-box-fighter-walkthrough/
https://www.puckiestyle.nl/htb-fighter/
