https://medium.com/egghunter/wakanda-1-vulnhub-walkthrough-3d524ed8a372
https://www.peerlyst.com/posts/how-to-break-into-wakanda-machine-writeup-spirited-wolf
https://latesthackingnews.com/2018/08/21/wakanda-1-vulnhub-ctf-challenge-walkthrough/
https://www.youtube.com/watch?v=O7vaV8YjuWY
https://www.youtube.com/watch?v=uEK75alSz-8
https://www.youtube.com/watch?v=iiimeROlNzQ
