https://www.youtube.com/watch?v=p658jaPS2Lc&t=3s
https://www.youtube.com/watch?v=5nATbm_roHE&t=2s
https://www.youtube.com/watch?v=G9l_rxYGkqM&t=11s
https://www.youtube.com/watch?v=98KUy4Jz7bM&t=2s
https://www.youtube.com/watch?v=BG2FHL38daw&t=2s
https://www.youtube.com/watch?v=r7WG1xiFwj4&t=5s
https://www.youtube.com/watch?v=v2RLcaf0Zq8
https://www.youtube.com/watch?v=8RxZ4O616zs
https://www.youtube.com/watch?v=pQS77jkviK0&t=2s
https://www.youtube.com/watch?v=W1tCBEcddds&t=8s
https://www.owasp.org/index.php/Appendix_A:_WebGoat_lesson_plans_and_solutions
http://www.xianxianlabs.com/2018/06/12/webgoat3/#Without_password
https://github.com/WebGoat/WebGoat/wiki/(Almost)-Fully-Documented-Solution-(en)

