https://raw.githubusercontent.com/nayuki/Project-Euler-solutions/master/java/p070.java
https://raw.githubusercontent.com/nayuki/Project-Euler-solutions/master/python/p070.py
https://raw.githubusercontent.com/sile/euler.rs/master/euler_02/src/problem070.rs
