https://www.youtube.com/watch?v=Gj79Z9NXKwo
https://www.youtube.com/watch?v=y5seLzrFS2o
https://www.youtube.com/watch?v=_ShrVauPSLA
https://www.youtube.com/watch?v=CWxKU57Rj3U
https://www.youtube.com/watch?v=WQUiub2hc0c
https://www.youtube.com/watch?v=GjRVa1vxXJE
https://www.youtube.com/watch?v=5frFKG2ZwUM
https://www.youtube.com/watch?v=NYq20yyxRu0
https://www.youtube.com/watch?v=3B8QhyrEXlU
https://www.youtube.com/watch?v=DJaX4HN2gwQ

