https://maskray.me/blog/2013-12-02-redtigers-hackit-wargame
http://hacktracking.blogspot.com.co/2013/08/redtigers-hackit-wargame-level-7.html
http://ju.outofmemory.cn/entry/107022
https://wiki.zenk-security.com/doku.php?id=redtiger_level7
http://juniorprincewang.github.io/2018/04/04/RedTiger-s-Hackit-writeup/#level7
