https://gist.githubusercontent.com/yuheiomori/8627352/raw/cdea57cea4afdf85c02fe68069eb17897e0a576f/main.go
https://raw.githubusercontent.com/mneudert/codeeval/master/easy/compressed-sequence/js.js
https://raw.githubusercontent.com/mneudert/codeeval/master/easy/compressed-sequence/php.php
