https://resources.infosecinstitute.com/web-application-pentest-guide-part-ii/
http://www.xssed.com/mirror/66118/
https://gist.githubusercontent.com/mort666/19d3dc1051a71c2c86885e1607d69442/raw/1763060c820d576ca5f22109da8cadc7293a2e74/secure-coding%2520workshop.md
https://community.softwaregrp.com/dcvta86296/attachments/dcvta86296/fortify-discussions/4100/3/Sample%20Zero%20Scan%20WI%2010.40%20-%20Vulnerability%20Summary%20report.pdf
https://danielmiessler.com/projects/webappsec_testing_resources/
