30
340 754 476
18 479 674
573 702 4
194 797 544
578 849 406
578 629 700
244 181 426
872 373 828
411 549 452
745 970 713
825 314 656
283 348 943
429 219 237
409 943 523
940 911 507
795 764 507
535 369 682
458 913 372
91 147 356
982 496 390
38 69 412
923 320 325
311 519 610
139 522 451
812 623 83
45 570 765
347 317 991
346 639 160
127 343 456
272 618 186
