https://raw.githubusercontent.com/Mitame/hackerrank-solutions/master/algorithms/warmup/compare-the-triplets.c
https://raw.githubusercontent.com/danhenriquesc/hackerrank/master/algorithms/warmup/compare_the_triplets.cpp
https://gist.githubusercontent.com/rodrigoramirez93/5940277d204adace36d2081071fb41ea/raw/4b777f4b62c7ab461bc20927f0bdaea1ecbad85a/Compare%2520the%2520triplets%2520c%2523.cs
https://raw.githubusercontent.com/leeychee/hackerrank/master/practice/algorithms/warmup/compare_the_triplets/main.go
https://raw.githubusercontent.com/janhelmle/hackerrank/master/Compare%20the%20Triplets.java
https://gist.githubusercontent.com/Asatelit/864919b7f0f6c18e4b21ed029ec64d27/raw/92fafd87817d1812d9523374a5d495a7d55b8e31/compare-the-triplets.js
https://raw.githubusercontent.com/ynyeh0221/HackerRank/master/Compare%20the%20Triplets.py
https://raw.githubusercontent.com/raghav97/Hackerrank-Solutions/master/compare_the_triplets.rb
https://raw.githubusercontent.com/witekbobrowski/HackerRank/master/Algorithms/Warmup/compare-the-triplets.swift
