https://raw.githubusercontent.com/PlatyPew/picoctf-2018-writeup/master/Cryptography/Crypto%20Warmup%201/README.md
https://raw.githubusercontent.com/zst123/picoctf-2018-writeups/master/Solved/Crypto_Warmup_1/README.md
http://blog.iodbh.net/picoctf2018-crypto-small-tasks.html
https://ctftime.org/writeup/13265
https://delayma.wordpress.com/2019/02/01/crypto-warmup-1-picoctf-18/
https://nikolaskama.me/picoctf-2018-crypto-writeups/#cryptowarmup175
https://tcode2k16.github.io/blog/posts/picoctf-2018-writeup/cryptography/#crypto-warmup-1
https://www.youtube.com/watch?v=8tIby5SqQ5E
https://www.youtube.com/watch?v=goQvbLIQTRY
