https://alexandervoidstar.wordpress.com/2016/03/19/overthewire-bandit-level-21/
https://raw.githubusercontent.com/Cathon/mySolutions/master/overthewire/Bandit/Level_21.md
https://medium.com/@Kan1shka9/overthewire-wargames-bandit-walkthrough-df2b86826c67
https://github.com/milescrabill/overthewire-solutions/blob/master/Bandit.md
https://jhalon.github.io/over-the-wire-bandit2/
https://www.youtube.com/watch?v=buX-OBMAYVs
https://blog.zairo.kr/entry/OverTheWire-%E2%80%93-Bandit-Level-21?category=569917https://jdow.io/blog/2017/12/16/overthewire-bandit-wargame-walkthrough/#level-10---22
https://raw.githubusercontent.com/Lorenyx/OverTheWire-Solutions/master/bandit/level_21.md
https://rundata.wordpress.com/2013/03/21/overthewire-bandit-wargame-solutions-1-24/
http://www.voidcn.com/article/p-eofbsnle-vt.html
