https://raw.githubusercontent.com/gravoo/codeabbey/master/Binary%20Search.cpp
https://raw.githubusercontent.com/pastelito02/Challenges-sol/master/Programming/Codeabbey/034/siloimwald.fs
https://raw.githubusercontent.com/pastelito02/Challenges-sol/master/Programming/Codeabbey/034/ecadena.hs
https://raw.githubusercontent.com/igor-kutepov/codeabbey/master/src/main/java/com/kutepov/samples/codeabbey/BinarySearch.java
https://raw.githubusercontent.com/pastelito02/Challenges-sol/master/Programming/Codeabbey/034/tomasloksa.jl
https://raw.githubusercontent.com/pastelito02/Challenges-sol/master/Programming/Codeabbey/034/NevaDA.js
https://raw.githubusercontent.com/pastelito02/Challenges-sol/master/Programming/Codeabbey/034/atercattus.lua
https://raw.githubusercontent.com/pastelito02/Challenges-sol/master/Programming/Codeabbey/034/stefan.schmiedl.ml
https://raw.githubusercontent.com/pastelito02/Challenges-sol/master/Programming/Codeabbey/034/KomorowskiDev.php
https://raw.githubusercontent.com/pastelito02/Challenges-sol/master/Programming/Codeabbey/034/pearl_barley.pl
https://raw.githubusercontent.com/vinitkantrod/codeabbey-Solutions-in-Python/master/34_rotate_string.py
https://raw.githubusercontent.com/pastelito02/Challenges-sol/master/Programming/Codeabbey/034/zabodailo.rb
https://raw.githubusercontent.com/pastelito02/Challenges-sol/master/Programming/Codeabbey/034/iksfclolr.rs
https://gist.githubusercontent.com/nsfyn55/3426918/raw/20b9de6ab6307c0208606fce6c46f8a608efffaf/bin-search.scala
https://raw.githubusercontent.com/JesseClarkND/codeabbey_in_C-NET/master/Binary%20Search
