https://raw.githubusercontent.com/nayuki/Project-Euler-solutions/master/java/p051.java
https://raw.githubusercontent.com/kdungs/euler/master/051/euler_51.py
https://raw.githubusercontent.com/sile/euler.rs/master/euler_02/src/problem051.rs
