https://darever.tistory.com/10
https://go-madhat.github.io/wargame.kr-DB_is_really_GOOD/
https://humit.tistory.com/210
https://ii4gsp.tistory.com/40
https://jeonyoungsin.tistory.com/25
https://kangsecu.tistory.com/63
https://mitny.tistory.com/163
https://ndb796.tistory.com/333
https://rootjonghyun.tistory.com/64
https://skyhell.tistory.com/m/42?category=722756
