https://raw.githubusercontent.com/StevenDunn/CodeEval/master/StepwiseWord/c/saa.c
https://raw.githubusercontent.com/StevenDunn/CodeEval/master/StepwiseWord/cpp/saa.cpp
https://raw.githubusercontent.com/AvetisG/CodeEval/master/01%20-%20Easy/C%23/StepwiseWord/StepwiseWordSolution.cs
https://raw.githubusercontent.com/mpillar/codeeval/master/0-easy/stepwise-word/main.py
