https://stuffwithaurum.blog/2015/06/14/metasploitable-2-walkthrough-an-exploitation-guide/
https://www.youtube.com/watch?v=q7G6qG_03Jk
https://www.hackingtutorials.org/metasploit-tutorials/hacking-druby-rmi-server-1-8/
https://blog.ehcgroup.io/index.php/2018/06/20/hacking-druby-rmi-server-1-8/
http://www.breachthesecurity.com/2019/02/10/hacking-druby-rmi-server-1-8/
