https://www.youtube.com/watch?v=p658jaPS2Lc
https://www.youtube.com/watch?v=5nATbm_roHE
https://www.youtube.com/watch?v=G9l_rxYGkqM
https://www.youtube.com/watch?v=BG2FHL38daw
https://www.youtube.com/watch?v=98KUy4Jz7bM
https://www.youtube.com/watch?v=v2RLcaf0Zq8
https://www.youtube.com/watch?v=r7WG1xiFwj4
https://www.youtube.com/watch?v=W1tCBEcddds
https://www.youtube.com/watch?v=pQS77jkviK0
https://www.youtube.com/watch?v=sXW7OKda9JM
https://raw.githubusercontent.com/njZhuMin/WebGoat-7.1-Lab/master/WebGoat-Lessons/sql-injection/LoginSqlInjection.java
http://klarsen.net/infosec/owasp-webgoat-sqli-lesson-8/
https://www.youtube.com/watch?v=wcs0VXKxDak
https://www.youtube.com/watch?v=roCLkDinT94
https://www.youtube.com/watch?v=up5z9kOgDB0
https://www.youtube.com/watch?v=9e4Q_p9Nuq8&list=PLrHVSJmDPvlqxCfBhPuksHdpViPyeZTsF&index=8
https://sithlab.tistory.com/649
https://sithlab.tistory.com/647
https://gist.github.com/tylernchls/97f8e2e907c84cfdc908c6f0fced1ddc#string-injection
https://github.com/WebGoat/WebGoat/wiki/Main-Exploits#sql-injection-lesson-7-exercise
https://github.com/WebGoat/WebGoat/wiki/Main-Exploits#sql-injection-lesson-8-exercise
http://www.reydes.com/d/?q=Demostracion_de_Inyeccion_SQL_utilizando_WebGoat
https://github.com/WebGoat/WebGoat/wiki/(Almost)-Fully-Documented-Solution-(en)
