15
10 5000
3000 9950
7000 9950
5920 9946
2510 7087
2587 4639
2257 4093
5586 487
9990 5000
8011 2635
6854 327
7000 50
3000 50
2313 3828
10 5000
77
8251 7765
3745 6378
4946 944
8891 8980
8468 7839
8601 6480
474 7955
3651 5696
1949 8255
6005 899
5369 3402
5970 7714
9321 5916
5325 1635
9744 5192
8041 7995
2958 1787
4374 7903
2730 3266
6884 1199
1106 5485
7678 1580
3441 1330
7275 5390
9584 3281
6288 4953
6682 2258
2668 6004
8174 7992
7638 7919
3184 5679
5915 6141
7465 290
4045 196
3556 929
1394 4661
6414 9072
6241 9855
402 3516
5245 9986
6796 1534
4940 3478
3792 7607
9482 1966
5600 7120
9885 8783
2800 5800
4925 266
6090 8969
461 9645
9898 1855
4307 6312
927 548
6167 1329
4063 1413
1316 860
2946 6255
4338 6738
3863 3820
8704 9462
941 8589
8246 3740
4390 3171
4005 480
2141 4466
126 2039
6320 4432
8351 7246
4979 4519
8574 9042
5931 9890
9902 8877
6146 4240
5615 9
8060 4319
9471 9000
2909 7718
