https://raw.githubusercontent.com/p1o2p3u1/WeChall/master/Training/PHP_LFI.md
http://sp4hack.blogspot.com.co/2012/10/we-chall-training-php-lfi.html
http://winkar.github.io/2015/01/24/wechall.html
https://raw.githubusercontent.com/BirkhoffLee/wechall/master/exploit/Training%20PHP%20LFI/README.md
https://raw.githubusercontent.com/stefanoschrs/wechall/master/Exploit/Exploit%20-%20PHP%20LFI
https://raw.githubusercontent.com/james9909/PracticeCTF/master/WeChall/PHP-LFI/Solution.txt
http://z3r0x43.blogspot.com.co/2014/10/wechall-training-php-lfi.html
http://joizel.readthedocs.io/ko/latest/web/LFI/[wechall]%20Warchall_Live%20LFI.html
http://0x48.pw/2015/08/07/0x06/#0x01-Training-PHP-LFI
http://blog.csdn.net/qq_19876131/article/details/50927701#t1
https://wiki.nomoreacl.com/display/NOMOREACL/10%29+WeChall+PHP+LFI
http://www.chiange.com/wechall-training-php-lfi-exploit-php-training/
https://blog.csdn.net/qq_20307987/article/details/70879698
https://www.wx-smile.com/104
https://www.tuziang.com/combat/1540.html
https://pengyang.me/2018/08/19/wechall/#11training-php-lfi
