https://raw.githubusercontent.com/kouzant/lexperm/master/lexperm.c
https://raw.githubusercontent.com/DavidWallacedot/permutations/master/permutations.cpp
https://raw.githubusercontent.com/28ACB29/Word-Ranker/master/RankWord/RankWord/Program.cs
https://raw.githubusercontent.com/cweill/Permute-Golang/master/permute.go
https://raw.githubusercontent.com/igor-kutepov/codeabbey/master/src/main/java/com/kutepov/samples/codeabbey/LexicographicPermutations.java
https://raw.githubusercontent.com/bhalash/lexicographer/master/lexicographer.js
https://raw.githubusercontent.com/JesseClarkND/codeabbey_in_C-NET/master/Lexicographic%20Permutations
