https://zhiliudi.blogspot.com/2017/01/root-me-hash-sha-2.html
https://tgraph.io/CTF-Kurs-molodogo-bojca-Nachalnye-zadaniya-kategorii-Crypto-2-09-01
https://www.youtube.com/watch?v=S5_akJgEUp0
https://www.cnblogs.com/heycomputer/articles/10551147.html
