https://rundata.wordpress.com/2013/06/22/overthewire-leviathan-wargame-solution-4/
https://jhalon.github.io/over-the-wire-leviathan/
https://www.youtube.com/watch?v=I6Ns7R7paJY&t=1093s
http://blog.zairo.kr/entry/OverTheWire-%E2%80%93-Leviathan-Level-4?category=570140
https://raw.githubusercontent.com/Lorenyx/OverTheWire-Solutions/master/leviathan/level_4.md
