https://raw.githubusercontent.com/pascal-bourut/codeeval-challenges/master/easy/147%20-%20Lettercase%20percentage%20ratio/147.js
https://raw.githubusercontent.com/pascal-bourut/codeeval-challenges/master/easy/147%20-%20Lettercase%20percentage%20ratio/147.php
https://raw.githubusercontent.com/mgorgei/codeeval/master/Easy/c147%20Lettercase%20Percentage%20Ratio.py
